xof 0303txt 0032
template Vector {
 <3d82ab5e-62da-11cf-ab39-0020af71e433>
 FLOAT x;
 FLOAT y;
 FLOAT z;
}

template MeshFace {
 <3d82ab5f-62da-11cf-ab39-0020af71e433>
 DWORD nFaceVertexIndices;
 array DWORD faceVertexIndices[nFaceVertexIndices];
}

template Mesh {
 <3d82ab44-62da-11cf-ab39-0020af71e433>
 DWORD nVertices;
 array Vector vertices[nVertices];
 DWORD nFaces;
 array MeshFace faces[nFaces];
 [...]
}

template MeshNormals {
 <f6f23f43-7686-11cf-8f52-0040333594a3>
 DWORD nNormals;
 array Vector normals[nNormals];
 DWORD nFaceNormals;
 array MeshFace faceNormals[nFaceNormals];
}

template Coords2d {
 <f6f23f44-7686-11cf-8f52-0040333594a3>
 FLOAT u;
 FLOAT v;
}

template MeshTextureCoords {
 <f6f23f40-7686-11cf-8f52-0040333594a3>
 DWORD nTextureCoords;
 array Coords2d textureCoords[nTextureCoords];
}

template ColorRGBA {
 <35ff44e0-6c7c-11cf-8f52-0040333594a3>
 FLOAT red;
 FLOAT green;
 FLOAT blue;
 FLOAT alpha;
}

template ColorRGB {
 <d3e16e81-7835-11cf-8f52-0040333594a3>
 FLOAT red;
 FLOAT green;
 FLOAT blue;
}

template Material {
 <3d82ab4d-62da-11cf-ab39-0020af71e433>
 ColorRGBA faceColor;
 FLOAT power;
 ColorRGB specularColor;
 ColorRGB emissiveColor;
 [...]
}

template MeshMaterialList {
 <f6f23f42-7686-11cf-8f52-0040333594a3>
 DWORD nMaterials;
 DWORD nFaceIndexes;
 array DWORD faceIndexes[nFaceIndexes];
 [Material <3d82ab4d-62da-11cf-ab39-0020af71e433>]
}

template TextureFilename {
 <a42790e1-7810-11cf-8f52-0040333594a3>
 STRING filename;
}


Mesh {
 598;
 -0.138018;0.289653;-0.500000;,
 0.861982;0.289653;-0.500000;,
 0.861982;1.289653;-0.500000;,
 -0.138018;1.289653;-0.500000;,
 -0.138018;1.289653;-0.500000;,
 0.861982;1.289653;-0.500000;,
 0.861982;1.289653;0.500000;,
 -0.138018;1.289653;0.500000;,
 -0.138018;1.289653;0.500000;,
 0.861982;1.289653;0.500000;,
 0.861982;0.289653;0.500000;,
 -0.138018;0.289653;0.500000;,
 -0.138018;0.289653;0.500000;,
 0.861982;0.289653;0.500000;,
 0.861982;0.289653;-0.500000;,
 -0.138018;0.289653;-0.500000;,
 0.861982;0.289653;-0.500000;,
 0.861982;0.289653;0.500000;,
 0.861982;1.289653;0.500000;,
 0.861982;1.289653;-0.500000;,
 -0.138018;0.289653;0.500000;,
 -0.138018;0.289653;-0.500000;,
 -0.138018;1.289653;-0.500000;,
 -0.138018;1.289653;0.500000;,
 -0.138018;1.289653;0.000000;,
 -0.138018;0.789653;-0.500000;,
 -0.138018;0.789653;0.000000;,
 -0.138018;0.289653;0.000000;,
 -0.138018;0.789653;0.500000;,
 0.861982;1.289653;0.000000;,
 0.861982;0.789653;0.500000;,
 0.861982;0.789653;0.000000;,
 0.861982;0.289653;0.000000;,
 0.861982;0.789653;-0.500000;,
 0.361982;0.289653;-0.500000;,
 0.861982;0.289653;0.000000;,
 0.361982;0.289653;0.000000;,
 0.361982;0.289653;0.500000;,
 -0.138018;0.289653;0.000000;,
 0.361982;0.289653;0.500000;,
 0.861982;0.789653;0.500000;,
 0.361982;0.789653;0.500000;,
 0.361982;1.289653;0.500000;,
 -0.138018;0.789653;0.500000;,
 0.361982;1.289653;-0.500000;,
 0.861982;0.789653;-0.500000;,
 0.361982;0.789653;-0.500000;,
 0.361982;0.289653;-0.500000;,
 -0.138018;0.789653;-0.500000;,
 0.111982;0.289653;-0.500000;,
 0.361982;0.289653;-0.250000;,
 0.111982;0.289653;-0.250000;,
 0.861982;0.289653;-0.250000;,
 0.611982;0.289653;-0.250000;,
 0.611982;0.289653;-0.500000;,
 0.611982;0.289653;0.250000;,
 0.611982;0.289653;0.000000;,
 0.861982;0.289653;0.250000;,
 0.111982;0.289653;0.000000;,
 -0.138018;0.289653;-0.250000;,
 0.611982;0.289653;0.500000;,
 0.361982;0.289653;0.250000;,
 -0.138018;0.289653;0.250000;,
 0.111982;0.289653;0.250000;,
 0.111982;0.289653;0.500000;,
 0.861982;1.039653;0.000000;,
 0.861982;1.039653;-0.500000;,
 0.861982;1.039653;0.250000;,
 -0.138018;1.039653;0.500000;,
 0.861982;1.039653;0.500000;,
 0.611982;1.039653;0.500000;,
 0.111982;1.039653;-0.500000;,
 -0.138018;1.039653;-0.500000;,
 0.861982;1.039653;-0.500000;,
 0.361982;1.039653;0.500000;,
 0.111982;1.039653;0.500000;,
 0.361982;1.039653;-0.500000;,
 0.611982;1.039653;-0.500000;,
 -4.670300;-0.181340;-4.260803;,
 4.670300;-0.181340;-4.260803;,
 4.670300;0.181340;-4.260803;,
 -4.670300;0.181340;-4.260803;,
 -4.670300;0.181340;-4.260803;,
 4.670300;0.181340;-4.260803;,
 4.670300;0.181340;4.260803;,
 -4.670300;0.181340;4.260803;,
 -4.670300;0.181340;4.260803;,
 4.670300;0.181340;4.260803;,
 4.670300;-0.181340;4.260803;,
 -4.670300;-0.181340;4.260803;,
 -4.670300;-0.181340;4.260803;,
 4.670300;-0.181340;4.260803;,
 4.670300;-0.181340;-4.260803;,
 -4.670300;-0.181340;-4.260803;,
 4.670300;-0.181340;-4.260803;,
 4.670300;-0.181340;4.260803;,
 4.670300;0.181340;4.260803;,
 4.670300;0.181340;-4.260803;,
 -4.670300;-0.181340;4.260803;,
 -4.670300;-0.181340;-4.260803;,
 -4.670300;0.181340;-4.260803;,
 -4.670300;0.181340;4.260803;,
 0.000000;-0.181340;-4.260803;,
 4.670300;-0.181340;0.000000;,
 0.000000;-0.181340;0.000000;,
 0.000000;-0.181340;4.260803;,
 -4.670300;-0.181340;0.000000;,
 0.000000;0.181340;4.260803;,
 4.670300;0.181340;0.000000;,
 0.000000;0.181340;0.000000;,
 0.000000;0.181340;-4.260803;,
 -4.670300;0.181340;0.000000;,
 -2.335150;-0.181340;-2.130401;,
 2.335150;-0.181340;2.130401;,
 2.335150;-0.181340;0.000000;,
 4.670300;-0.181340;2.130401;,
 -2.335150;-0.181340;0.000000;,
 -4.670300;-0.181340;-2.130401;,
 -2.335150;0.181340;4.260803;,
 0.000000;0.181340;2.130401;,
 -2.335150;0.181340;2.130401;,
 4.670300;0.181340;2.130401;,
 2.335150;0.181340;2.130401;,
 2.335150;0.181340;4.260803;,
 2.335150;0.181340;-2.130401;,
 2.335150;0.181340;0.000000;,
 4.670300;0.181340;-2.130401;,
 -2.335150;0.181340;0.000000;,
 -4.670300;0.181340;2.130401;,
 2.335150;0.181340;-4.260803;,
 0.000000;0.181340;-2.130401;,
 -4.670300;0.181340;-2.130401;,
 -2.335150;0.181340;-2.130401;,
 -2.335150;0.181340;-4.260803;,
 1.167575;0.181340;-2.130401;,
 -1.167575;0.181340;2.130402;,
 1.167575;0.181340;1.065201;,
 -1.167575;0.181340;3.195602;,
 3.502725;0.181340;-2.130401;,
 -2.335150;0.181340;-1.065201;,
 -2.335150;0.181340;1.065201;,
 2.335150;0.181340;-1.065201;,
 2.335150;0.181340;1.065201;,
 1.167575;0.181340;-3.195602;,
 3.502725;0.181340;-1.065201;,
 -1.167575;0.181340;-1.065201;,
 -3.502725;0.181340;1.065201;,
 -1.167575;0.181340;-3.195602;,
 -1.167575;0.181340;0.000000;,
 -1.167575;0.181340;-2.130401;,
 1.167575;0.181340;3.195602;,
 0.000000;0.181340;-3.195602;,
 3.502725;0.181340;0.000000;,
 0.000000;0.181340;-1.065201;,
 3.502725;0.181340;1.065201;,
 1.167575;0.181340;-1.065201;,
 1.167575;0.181340;0.000000;,
 -1.167575;0.181340;1.065201;,
 0.000000;0.181340;3.195602;,
 0.000000;0.181340;1.065201;,
 1.167575;0.181340;2.130401;,
 -0.583787;0.181340;0.532600;,
 0.000000;0.181340;0.532600;,
 1.167575;0.181340;0.532600;,
 1.751362;0.181340;-2.130401;,
 0.583787;0.181340;-2.663002;,
 1.167575;0.181340;-2.663002;,
 0.583787;0.181340;-1.597801;,
 1.751362;0.181340;0.532600;,
 -0.583787;0.181340;-1.597801;,
 1.167575;0.181340;-1.597801;,
 -0.583787;0.181340;0.000000;,
 1.751362;0.181340;1.065201;,
 0.000000;0.181340;-2.663002;,
 -1.751362;0.181340;-1.065201;,
 -0.583787;0.181340;-2.130401;,
 2.918937;0.181340;-1.597801;,
 0.583787;0.181340;1.597801;,
 -0.583787;0.181340;2.130401;,
 -0.583787;0.181340;2.663002;,
 0.000000;0.181340;-1.597801;,
 2.918937;0.181340;0.000000;,
 1.751362;0.181340;0.000000;,
 2.335150;0.181340;1.597801;,
 1.751362;0.181340;-1.597801;,
 2.918937;0.181340;1.597801;,
 -1.751362;0.181340;-0.000000;,
 2.335150;0.181340;-1.597801;,
 -1.751362;0.181340;-0.532600;,
 2.335150;0.181340;0.532600;,
 1.751362;0.181340;-2.663002;,
 0.583787;0.181340;-2.130401;,
 2.335150;0.181340;-0.532600;,
 2.918937;0.181340;-0.532600;,
 1.751362;0.181340;2.130401;,
 -1.751362;0.181340;1.597801;,
 0.000000;0.181340;2.663002;,
 0.000000;0.181340;1.597801;,
 0.583787;0.181340;2.130401;,
 1.167575;0.181340;1.597801;,
 -1.167575;0.181340;1.597801;,
 0.000000;0.181340;-0.532600;,
 0.583787;0.181340;1.065201;,
 0.583787;0.181340;-0.532600;,
 -0.583787;0.181340;1.597801;,
 0.583787;0.181340;-0.000000;,
 -1.751362;0.181340;1.065201;,
 1.167575;0.181340;-0.532600;,
 0.583787;0.181340;-1.065201;,
 -1.167575;0.181340;0.532600;,
 1.751362;0.181340;1.597801;,
 -1.167575;0.181340;-0.532600;,
 -1.167575;0.181340;-1.597801;,
 -0.583787;0.181340;-0.532600;,
 -0.583787;0.181340;-2.663002;,
 -0.583787;0.181340;-1.065201;,
 0.583787;0.181340;2.663002;,
 2.918937;0.181340;0.532600;,
 -1.751362;0.181340;0.532600;,
 -1.751362;0.181340;-1.597801;,
 0.583787;0.181340;0.532600;,
 1.751362;0.181340;-0.532600;,
 1.751362;0.181340;-1.065201;,
 -0.583787;0.181340;1.065201;,
 -0.875681;0.181340;-0.798901;,
 0.875681;0.181340;-0.266300;,
 -1.459469;0.181340;0.798901;,
 -1.459469;0.181340;0.532600;,
 0.875681;0.181340;-0.532600;,
 0.583787;0.181340;-0.266300;,
 -0.875681;0.181340;-0.532600;,
 0.291894;0.181340;2.130401;,
 0.583787;0.181340;-0.798901;,
 0.875681;0.181340;1.864102;,
 0.000000;0.181340;1.864101;,
 0.291894;0.181340;2.396702;,
 0.000000;0.181340;0.266300;,
 -0.291894;0.181340;0.266300;,
 1.751362;0.181340;-0.798901;,
 2.043256;0.181340;-0.798901;,
 2.335150;0.181340;0.266300;,
 1.459469;0.181340;1.597801;,
 -0.291894;0.181340;-0.532600;,
 -0.291894;0.181340;0.000000;,
 0.291894;0.181340;-0.798901;,
 0.291894;0.181340;1.331501;,
 2.627043;0.181340;-0.266300;,
 -0.291894;0.181340;1.597801;,
 0.291894;0.181340;-0.532600;,
 0.291894;0.181340;-2.130401;,
 1.459469;0.181340;-1.597801;,
 1.459469;0.181340;-1.065201;,
 -0.291894;0.181340;1.864101;,
 1.459469;0.181340;-0.266300;,
 0.583787;0.181340;1.864101;,
 0.291894;0.181340;1.597801;,
 0.875681;0.181340;0.266300;,
 0.875681;0.181340;1.597801;,
 2.043256;0.181340;0.798901;,
 -0.291894;0.181340;-1.864101;,
 -1.459469;0.181340;-0.266300;,
 -1.459469;0.181340;-0.532600;,
 0.291894;0.181340;-2.396702;,
 -0.875681;0.181340;1.065201;,
 0.291894;0.181340;-1.864101;,
 0.875681;0.181340;-1.864101;,
 0.000000;0.181340;-1.864101;,
 0.291894;0.181340;0.798901;,
 -0.291894;0.181340;1.065201;,
 1.459469;0.181340;1.331501;,
 1.459469;0.181340;0.798901;,
 -0.291894;0.181340;-1.331501;,
 2.043256;0.181340;0.000000;,
 1.167575;0.181340;0.798901;,
 -0.875681;0.181340;0.266300;,
 0.875681;0.181340;-1.331501;,
 0.291894;0.181340;1.864101;,
 -0.291894;0.181340;-0.266300;,
 0.291894;0.181340;-0.266300;,
 0.583787;0.181340;-1.331501;,
 0.000000;0.181340;-0.266300;,
 2.627043;0.181340;0.266300;,
 -0.291894;0.181340;0.798901;,
 -0.875681;0.181340;-1.597801;,
 2.043256;0.181340;-0.266300;,
 -0.583787;0.181340;0.798901;,
 0.291894;0.181340;0.532600;,
 0.291894;0.181340;-0.000000;,
 0.583787;0.181340;1.331501;,
 2.043256;0.181340;0.266300;,
 0.875681;0.181340;0.532600;,
 -0.583787;0.181340;-0.266300;,
 -0.583787;0.181340;1.864102;,
 -0.583787;0.181340;-1.331501;,
 -0.875681;0.181340;0.532600;,
 1.459469;0.181340;0.000000;,
 0.000000;0.181340;-1.331501;,
 -0.875681;0.181340;-0.000000;,
 0.875681;0.181340;0.798901;,
 0.000000;0.181340;1.331501;,
 1.459469;0.181340;1.864101;,
 -1.459469;0.181340;1.331501;,
 0.291894;0.181340;-1.331501;,
 0.291894;0.181340;0.266300;,
 1.167575;0.181340;-1.331501;,
 -1.167575;0.181340;0.798901;,
 -0.875681;0.181340;0.798901;,
 1.167575;0.181340;0.266300;,
 1.167575;0.181340;-0.266300;,
 1.751362;0.181340;-0.266300;,
 0.875681;0.181340;0.000000;,
 1.167575;0.181340;-0.798901;,
 -0.291894;0.181340;1.331501;,
 0.875681;0.181340;-1.065201;,
 1.459469;0.181340;1.065201;,
 0.291894;0.181340;1.065201;,
 -0.875681;0.181340;-1.331501;,
 2.043256;0.181340;0.532600;,
 0.583787;0.181340;-1.864101;,
 0.875681;0.181340;1.331501;,
 2.043256;0.181340;-1.331501;,
 -0.291894;0.181340;-1.597801;,
 -1.167575;0.181340;0.266300;,
 1.751362;0.181340;0.266300;,
 -0.291894;0.181340;-1.065201;,
 1.459469;0.181340;-1.864101;,
 0.291894;0.181340;-1.597801;,
 -0.291894;0.181340;-0.798901;,
 -0.583787;0.181340;0.266300;,
 1.459469;0.181340;0.532600;,
 2.043256;0.181340;-0.532600;,
 -1.459469;0.181340;0.266300;,
 1.459469;0.181340;0.266300;,
 -1.167575;0.181340;-0.798901;,
 0.291894;0.181340;-1.065201;,
 1.751362;0.181340;0.798901;,
 -1.459469;0.181340;-0.798901;,
 0.000000;0.181340;-0.798901;,
 -0.875681;0.181340;-0.266300;,
 -0.875681;0.181340;1.331501;,
 1.167575;0.181340;1.331501;,
 0.875681;0.181340;-0.798901;,
 0.875681;0.181340;-1.597801;,
 -1.167575;0.181340;-0.266300;,
 -0.875681;0.181340;-1.065201;,
 0.000000;0.181340;0.798901;,
 -0.875681;0.181340;1.864102;,
 0.583787;0.181340;0.798901;,
 2.043256;0.181340;1.331501;,
 0.583787;0.181340;0.266300;,
 0.875681;0.181340;1.065201;,
 -0.583787;0.181340;1.331501;,
 -1.459469;0.181340;0.000000;,
 1.459469;0.181340;-0.798901;,
 1.459469;0.181340;-0.532600;,
 -0.291894;0.181340;0.532600;,
 1.459469;0.181340;-1.331501;,
 -0.583787;0.181340;-0.798901;,
 1.459469;0.181340;2.663002;,
 1.021628;0.181340;0.665750;,
 -0.729734;0.181340;-0.932051;,
 -0.291894;0.181340;-0.133150;,
 0.437841;0.181340;-1.464651;,
 -0.729734;0.181340;0.532600;,
 -0.145947;0.181340;-0.133150;,
 0.145947;0.181340;0.932051;,
 -0.145947;0.181340;1.065201;,
 1.605416;0.181340;0.133150;,
 1.021628;0.181340;0.133150;,
 0.437841;0.181340;-0.665750;,
 -0.729734;0.181340;0.665750;,
 0.437841;0.181340;1.331501;,
 -0.583787;0.181340;0.133150;,
 1.167575;0.181340;0.399450;,
 0.437841;0.181340;-0.798901;,
 0.291894;0.181340;-0.399450;,
 -0.729734;0.181340;-0.532600;,
 0.729734;0.181340;1.464651;,
 0.145947;0.181340;0.399450;,
 0.145947;0.181340;-0.399450;,
 -0.437841;0.181340;-0.399450;,
 1.605416;0.181340;-0.399450;,
 0.145947;0.181340;0.133150;,
 -0.729734;0.181340;-0.000000;,
 -0.437841;0.181340;-0.532600;,
 0.000000;0.181340;-0.665750;,
 -0.583787;0.181340;0.399450;,
 0.875681;0.181340;-0.399450;,
 0.729734;0.181340;-0.266300;,
 -0.291894;0.181340;-0.399450;,
 1.605416;0.181340;-0.000000;,
 0.729734;0.181340;-0.399450;,
 1.313522;0.181340;0.932051;,
 -0.437841;0.181340;0.932051;,
 -0.437841;0.181340;-1.198351;,
 0.000000;0.181340;0.665750;,
 0.437841;0.181340;-0.133150;,
 1.313522;0.181340;0.399450;,
 1.313522;0.181340;0.532600;,
 0.437841;0.181340;1.065201;,
 -0.437841;0.181340;0.399450;,
 0.729734;0.181340;0.532600;,
 0.437841;0.181340;-0.266300;,
 0.729734;0.181340;0.399450;,
 -1.313522;0.181340;-0.133150;,
 0.729734;0.181340;-1.198351;,
 -0.291894;0.181340;0.133150;,
 -1.021628;0.181340;0.399450;,
 -0.145947;0.181340;0.266300;,
 0.000000;0.181340;0.399450;,
 0.583787;0.181340;-1.198351;,
 -0.583787;0.181340;-0.399450;,
 0.291894;0.181340;-0.665750;,
 1.313522;0.181340;-0.133150;,
 0.437841;0.181340;0.665750;,
 -0.145947;0.181340;0.532600;,
 -0.437841;0.181340;0.532600;,
 0.145947;0.181340;1.730951;,
 0.729734;0.181340;0.932051;,
 0.729734;0.181340;-0.798901;,
 0.000000;0.181340;-0.399450;,
 -0.145947;0.181340;-0.399450;,
 -1.313522;0.181340;0.133150;,
 0.000000;0.181340;0.133150;,
 1.021628;0.181340;1.198351;,
 -0.291894;0.181340;0.399450;,
 0.437841;0.181340;-0.000000;,
 -0.145947;0.181340;0.399450;,
 0.583787;0.181340;1.198351;,
 0.145947;0.181340;-1.065201;,
 0.437841;0.181340;-0.399450;,
 0.437841;0.181340;0.133150;,
 0.000000;0.181340;-0.932051;,
 -1.021628;0.181340;-0.399450;,
 1.167575;0.181340;-0.399450;,
 -0.875681;0.181340;-0.399450;,
 0.729734;0.181340;0.000000;,
 -1.021628;0.181340;-0.133150;,
 0.875681;0.181340;-0.665750;,
 -0.729734;0.181340;-0.665750;,
 -0.145947;0.181340;-0.665750;,
 -0.437841;0.181340;-0.665750;,
 1.021628;0.181340;-0.266300;,
 0.875681;0.181340;-0.133150;,
 0.729734;0.181340;-1.065201;,
 0.000000;0.181340;0.932051;,
 -0.145947;0.181340;0.000000;,
 1.021628;0.181340;-0.932051;,
 -0.145947;0.181340;0.133150;,
 -1.313522;0.181340;0.000000;,
 -0.437841;0.181340;0.000000;,
 0.291894;0.181340;-0.932051;,
 0.145947;0.181340;-0.798901;,
 1.167575;0.181340;-0.133150;,
 0.145947;0.181340;1.065201;,
 1.021628;0.181340;0.000000;,
 0.145947;0.181340;-1.198351;,
 1.605416;0.181340;1.198351;,
 0.145947;0.181340;-0.133150;,
 0.145947;0.181340;0.266300;,
 1.167575;0.181340;0.133150;,
 0.437841;0.181340;1.198351;,
 0.000000;0.181340;-0.133150;,
 0.145947;0.181340;-0.665750;,
 -1.021628;0.181340;0.000000;,
 1.605416;0.181340;0.665750;,
 -0.145947;0.181340;1.198351;,
 1.605416;0.181340;-1.198351;,
 1.897309;0.181340;-0.133150;,
 -0.145947;0.181340;-0.532600;,
 -0.729734;0.181340;-0.399450;,
 -0.437841;0.181340;0.133150;,
 1.605416;0.181340;-0.932051;,
 0.583787;0.181340;0.399450;,
 -0.291894;0.181340;-0.665750;,
 0.729734;0.181340;-0.665750;,
 0.145947;0.181340;-0.000000;,
 0.583787;0.181340;0.665750;,
 0.145947;0.181340;-0.532600;,
 0.437841;0.181340;-0.932051;,
 0.000000;0.181340;-1.198351;,
 0.437841;0.181340;-1.065201;,
 0.291894;0.181340;1.198351;,
 1.167575;0.181340;0.665750;,
 1.313522;0.181340;0.000000;,
 0.437841;0.181340;-0.532600;,
 1.021628;0.181340;-0.665750;,
 -0.145947;0.181340;-1.065201;,
 -0.583787;0.181340;-0.133150;,
 0.583787;0.181340;-0.932051;,
 -0.437841;0.181340;0.266300;,
 0.145947;0.181340;1.331501;,
 1.021628;0.181340;-0.532600;,
 0.583787;0.181340;0.932051;,
 -0.145947;0.181340;-0.932051;,
 0.729734;0.181340;1.065201;,
 0.729734;0.181340;-0.932051;,
 0.729734;0.181340;-0.133150;,
 -0.729734;0.181340;1.198351;,
 0.000000;0.181340;1.198351;,
 -0.145947;0.181340;0.665750;,
 1.897309;0.181340;0.399450;,
 -1.605416;0.181340;0.399450;,
 0.583787;0.181340;0.133150;,
 0.145947;0.181340;0.532600;,
 -1.313522;0.181340;0.399450;,
 1.021628;0.181340;0.532600;,
 0.145947;0.181340;1.464651;,
 0.729734;0.181340;-0.532600;,
 1.313522;0.181340;-0.665751;,
 -1.021628;0.181340;0.932051;,
 1.021628;0.181340;-0.399450;,
 -0.437841;0.181340;-0.133150;,
 0.583787;0.181340;-0.399450;,
 1.167575;0.181340;-0.932051;,
 -0.729734;0.181340;0.133150;,
 -0.145947;0.181340;1.464651;,
 1.313522;0.181340;-0.532600;,
 0.583787;0.181340;-0.665750;,
 0.583787;0.181340;-0.133150;,
 1.313522;0.181340;0.665750;,
 0.729734;0.181340;-1.464651;,
 -0.145947;0.181340;0.798901;,
 0.291894;0.181340;0.932051;,
 -0.437841;0.181340;0.665750;,
 1.459469;0.181340;-0.133150;,
 1.897309;0.181340;0.133150;,
 0.437841;0.181340;0.399450;,
 -0.291894;0.181340;0.665750;,
 0.729734;0.181340;1.198351;,
 0.729734;0.181340;0.665750;,
 1.021628;0.181340;0.266300;,
 1.313522;0.181340;-0.266300;,
 0.437841;0.181340;-1.198351;,
 1.313522;0.181340;-0.932051;,
 1.021628;0.181340;0.932051;,
 -0.729734;0.181340;-0.266300;,
 1.021628;0.181340;0.798901;,
 -0.145947;0.181340;-1.331501;,
 0.145947;0.181340;0.665750;,
 -0.875681;0.181340;0.399450;,
 1.459469;0.181340;0.133150;,
 -0.729734;0.181340;0.399450;,
 -0.729734;0.181340;0.798901;,
 0.729734;0.181340;1.331501;,
 -0.145947;0.181340;-1.198351;,
 0.291894;0.181340;0.399450;,
 0.437841;0.181340;0.798901;,
 0.437841;0.181340;-1.331501;,
 -0.437841;0.181340;1.198351;,
 0.875681;0.181340;0.665750;,
 -0.729734;0.181340;-0.133150;,
 1.313522;0.181340;0.133150;,
 -1.021628;0.181340;0.665750;,
 -0.145947;0.181340;0.932051;,
 1.605416;0.181340;-0.133150;,
 0.145947;0.181340;0.798901;,
 0.145947;0.181340;-1.331501;,
 1.021628;0.181340;0.399450;,
 0.291894;0.181340;0.133150;,
 -1.021628;0.181340;0.266300;,
 -1.313522;0.181340;-0.266300;,
 -0.729734;0.181340;0.266300;,
 0.729734;0.181340;0.266300;,
 1.459469;0.181340;-0.399450;,
 1.021628;0.181340;-0.133150;,
 1.605416;0.181340;0.399450;,
 -1.313522;0.181340;0.266300;,
 -0.145947;0.181340;-0.798901;,
 1.459469;0.181340;0.399450;,
 0.145947;0.181340;-0.932051;,
 -0.145947;0.181340;1.331501;,
 -0.437841;0.181340;-0.932051;,
 0.145947;0.181340;1.198351;,
 -0.437841;0.181340;-0.798901;,
 1.021628;0.181340;-1.198351;,
 -1.021628;0.181340;0.133150;,
 0.145947;0.181340;-1.464651;,
 1.313522;0.181340;-0.399450;,
 0.729734;0.181340;0.133150;,
 0.437841;0.181340;0.932051;,
 0.291894;0.181340;-1.198351;,
 1.313522;0.181340;1.198351;,
 1.313522;0.181340;0.266300;,
 1.897309;0.181340;-0.399450;,
 0.729734;0.181340;0.798901;,
 0.437841;0.181340;0.266300;,
 1.605416;0.181340;0.932051;,
 0.145947;0.181340;-0.266300;,
 -0.145947;0.181340;-0.266300;,
 0.291894;0.181340;-0.133150;,
 -0.437841;0.181340;-0.266300;,
 -0.291894;0.181340;0.932051;,
 0.729734;0.181340;-1.331501;,
 0.291894;0.181340;0.665750;,
 -0.729734;0.181340;0.932051;,
 0.875681;0.181340;0.399450;,
 0.437841;0.181340;1.464651;;
 1073;
 3;12,62,64;,
 3;62,63,64;,
 3;37,64,63;,
 3;37,63,61;,
 3;37,61,60;,
 3;60,61,55;,
 3;13,60,55;,
 3;13,55,57;,
 3;38,63,62;,
 3;38,58,63;,
 3;61,63,58;,
 3;36,61,58;,
 3;36,55,61;,
 3;36,56,55;,
 3;55,56,57;,
 3;35,57,56;,
 3;35,56,53;,
 3;35,53,52;,
 3;38,59,58;,
 3;51,58,59;,
 3;36,58,51;,
 3;36,51,50;,
 3;36,50,56;,
 3;53,56,50;,
 3;34,53,50;,
 3;34,54,53;,
 3;52,53,54;,
 3;14,52,54;,
 3;15,51,59;,
 3;15,49,51;,
 3;49,50,51;,
 3;34,50,49;,
 3;0,48,47;,
 3;46,47,48;,
 3;1,47,46;,
 3;1,46,45;,
 3;46,77,45;,
 3;73,45,77;,
 3;2,73,77;,
 3;2,77,44;,
 3;48,71,46;,
 3;76,46,71;,
 3;46,76,77;,
 3;76,44,77;,
 3;44,76,71;,
 3;44,71,3;,
 3;72,3,71;,
 3;48,72,71;,
 3;10,40,39;,
 3;39,40,41;,
 3;11,39,41;,
 3;11,41,43;,
 3;41,75,43;,
 3;68,43,75;,
 3;8,68,75;,
 3;8,75,42;,
 3;40,70,41;,
 3;74,41,70;,
 3;41,74,75;,
 3;74,42,75;,
 3;42,74,70;,
 3;42,70,9;,
 3;69,9,70;,
 3;40,69,70;,
 3;16,33,32;,
 3;31,32,33;,
 3;17,32,31;,
 3;17,31,30;,
 3;31,67,30;,
 3;30,67,18;,
 3;67,29,18;,
 3;33,66,31;,
 3;66,19,31;,
 3;65,31,19;,
 3;31,65,67;,
 3;65,29,67;,
 3;29,65,19;,
 3;20,28,27;,
 3;26,27,28;,
 3;21,27,26;,
 3;21,26,25;,
 3;24,25,26;,
 3;22,25,24;,
 3;23,26,28;,
 3;23,24,26;,
 3;7,5,4;,
 3;7,6,5;,
 3;82,131,133;,
 3;131,132,133;,
 3;132,147,133;,
 3;147,110,133;,
 3;110,147,151;,
 3;110,151,143;,
 3;110,143,129;,
 3;111,132,131;,
 3;139,132,111;,
 3;139,219,132;,
 3;219,149,132;,
 3;132,149,147;,
 3;149,214,147;,
 3;214,151,147;,
 3;151,214,173;,
 3;151,173,165;,
 3;151,165,143;,
 3;127,139,111;,
 3;127,188,139;,
 3;188,174,139;,
 3;139,174,219;,
 3;219,174,212;,
 3;149,219,212;,
 3;149,212,175;,
 3;149,175,214;,
 3;173,214,175;,
 3;146,127,111;,
 3;140,127,146;,
 3;140,218,127;,
 3;218,186,127;,
 3;127,186,188;,
 3;128,146,111;,
 3;120,146,128;,
 3;120,140,146;,
 3;120,195,140;,
 3;195,206,140;,
 3;140,206,218;,
 3;206,226,218;,
 3;226,227,218;,
 3;502,218,227;,
 3;218,502,186;,
 3;85,120,128;,
 3;85,118,120;,
 3;118,137,120;,
 3;137,135,120;,
 3;135,195,120;,
 3;135,200,195;,
 3;301,195,200;,
 3;195,301,206;,
 3;301,157,206;,
 3;157,226,206;,
 3;107,137,118;,
 3;107,158,137;,
 3;158,179,137;,
 3;137,179,135;,
 3;179,178,135;,
 3;178,346,135;,
 3;135,346,200;,
 3;107,150,158;,
 3;216,158,150;,
 3;158,216,196;,
 3;158,196,179;,
 3;196,119,179;,
 3;179,119,178;,
 3;119,252,178;,
 3;178,252,292;,
 3;178,292,346;,
 3;150,107,123;,
 3;122,150,123;,
 3;358,150,122;,
 3;150,358,160;,
 3;160,216,150;,
 3;160,198,216;,
 3;198,235,216;,
 3;235,196,216;,
 3;196,235,119;,
 3;121,122,123;,
 3;185,122,121;,
 3;183,122,185;,
 3;122,183,194;,
 3;194,358,122;,
 3;358,194,160;,
 3;84,121,123;,
 3;157,301,200;,
 3;200,339,157;,
 3;339,263,157;,
 3;510,157,263;,
 3;157,510,305;,
 3;157,305,226;,
 3;305,209,226;,
 3;226,209,227;,
 3;204,339,200;,
 3;204,351,339;,
 3;498,339,351;,
 3;339,498,263;,
 3;498,223,263;,
 3;595,263,223;,
 3;263,595,306;,
 3;306,510,263;,
 3;510,306,305;,
 3;346,204,200;,
 3;292,204,346;,
 3;204,292,247;,
 3;204,247,312;,
 3;204,312,351;,
 3;549,351,312;,
 3;351,549,223;,
 3;223,498,351;,
 3;247,292,252;,
 3;197,247,252;,
 3;516,247,197;,
 3;247,516,312;,
 3;516,571,312;,
 3;312,571,466;,
 3;312,466,268;,
 3;268,549,312;,
 3;549,268,223;,
 3;234,197,252;,
 3;234,417,197;,
 3;417,255,197;,
 3;507,197,255;,
 3;197,507,299;,
 3;299,516,197;,
 3;516,299,571;,
 3;299,499,571;,
 3;466,571,499;,
 3;119,234,252;,
 3;119,276,234;,
 3;417,234,276;,
 3;255,417,276;,
 3;177,255,276;,
 3;597,255,177;,
 3;255,597,245;,
 3;245,507,255;,
 3;507,245,491;,
 3;507,491,299;,
 3;299,491,573;,
 3;299,573,499;,
 3;119,231,276;,
 3;231,254,276;,
 3;177,276,254;,
 3;177,254,257;,
 3;377,177,257;,
 3;177,377,288;,
 3;288,597,177;,
 3;597,288,371;,
 3;597,371,245;,
 3;235,231,119;,
 3;235,198,231;,
 3;198,254,231;,
 3;198,233,254;,
 3;233,257,254;,
 3;199,257,233;,
 3;199,340,257;,
 3;319,257,340;,
 3;319,377,257;,
 3;377,319,544;,
 3;377,544,288;,
 3;233,198,160;,
 3;199,233,160;,
 3;160,300,199;,
 3;300,241,199;,
 3;269,199,241;,
 3;199,269,340;,
 3;582,340,269;,
 3;340,582,136;,
 3;136,424,340;,
 3;424,319,340;,
 3;300,160,194;,
 3;210,300,194;,
 3;300,210,241;,
 3;269,241,210;,
 3;457,269,210;,
 3;269,457,314;,
 3;314,582,269;,
 3;582,314,136;,
 3;183,210,194;,
 3;348,210,183;,
 3;210,348,172;,
 3;172,457,210;,
 3;457,172,314;,
 3;587,314,172;,
 3;314,587,270;,
 3;270,392,314;,
 3;392,136,314;,
 3;142,348,183;,
 3;348,142,172;,
 3;258,172,142;,
 3;172,258,335;,
 3;335,587,172;,
 3;587,335,270;,
 3;142,183,185;,
 3;142,185,154;,
 3;217,142,154;,
 3;142,217,189;,
 3;189,258,142;,
 3;189,317,258;,
 3;335,258,317;,
 3;168,335,317;,
 3;168,465,335;,
 3;465,270,335;,
 3;154,185,121;,
 3;108,154,121;,
 3;108,152,154;,
 3;152,217,154;,
 3;152,181,217;,
 3;181,281,217;,
 3;281,189,217;,
 3;240,189,281;,
 3;189,240,317;,
 3;289,317,240;,
 3;289,501,317;,
 3;501,168,317;,
 3;144,152,108;,
 3;144,193,152;,
 3;193,181,152;,
 3;193,246,181;,
 3;246,125,181;,
 3;125,281,181;,
 3;125,240,281;,
 3;125,289,240;,
 3;126,144,108;,
 3;126,138,144;,
 3;138,176,144;,
 3;176,141,144;,
 3;141,193,144;,
 3;141,192,193;,
 3;246,193,192;,
 3;125,246,192;,
 3;192,284,125;,
 3;284,272,125;,
 3;125,272,289;,
 3;138,126,83;,
 3;124,138,83;,
 3;124,176,138;,
 3;124,187,176;,
 3;187,141,176;,
 3;187,320,141;,
 3;320,222,141;,
 3;222,239,141;,
 3;141,239,192;,
 3;239,330,192;,
 3;192,330,284;,
 3;83,129,124;,
 3;190,124,129;,
 3;124,190,164;,
 3;124,164,184;,
 3;124,184,187;,
 3;320,187,184;,
 3;222,320,184;,
 3;143,190,129;,
 3;143,166,190;,
 3;166,164,190;,
 3;134,164,166;,
 3;325,164,134;,
 3;164,325,184;,
 3;325,250,184;,
 3;184,250,356;,
 3;356,467,184;,
 3;467,222,184;,
 3;143,165,166;,
 3;165,191,166;,
 3;134,166,191;,
 3;191,265,134;,
 3;134,265,170;,
 3;170,325,134;,
 3;325,170,250;,
 3;170,304,250;,
 3;356,250,304;,
 3;155,356,304;,
 3;356,155,251;,
 3;467,356,251;,
 3;222,467,251;,
 3;165,262,191;,
 3;262,249,191;,
 3;191,249,264;,
 3;191,264,318;,
 3;191,318,265;,
 3;318,167,265;,
 3;265,167,342;,
 3;265,342,170;,
 3;262,165,173;,
 3;130,262,173;,
 3;262,130,249;,
 3;130,266,249;,
 3;266,264,249;,
 3;180,264,266;,
 3;180,326,264;,
 3;326,318,264;,
 3;167,318,326;,
 3;130,173,175;,
 3;259,130,175;,
 3;130,259,266;,
 3;259,321,266;,
 3;180,266,321;,
 3;180,321,271;,
 3;271,538,180;,
 3;538,296,180;,
 3;296,577,180;,
 3;577,326,180;,
 3;169,259,175;,
 3;169,321,259;,
 3;169,293,321;,
 3;293,271,321;,
 3;394,271,293;,
 3;271,394,324;,
 3;324,545,271;,
 3;545,538,271;,
 3;545,296,538;,
 3;283,169,175;,
 3;316,169,283;,
 3;169,316,293;,
 3;344,293,316;,
 3;215,293,344;,
 3;215,394,293;,
 3;394,215,324;,
 3;212,283,175;,
 3;316,283,212;,
 3;145,316,212;,
 3;145,344,316;,
 3;145,333,344;,
 3;333,224,344;,
 3;224,360,344;,
 3;360,215,344;,
 3;215,360,357;,
 3;357,572,215;,
 3;572,324,215;,
 3;145,212,174;,
 3;336,145,174;,
 3;145,336,333;,
 3;336,261,333;,
 3;211,333,261;,
 3;211,224,333;,
 3;211,230,224;,
 3;230,439,224;,
 3;439,357,224;,
 3;360,224,357;,
 3;188,336,174;,
 3;188,261,336;,
 3;260,261,188;,
 3;260,211,261;,
 3;260,561,211;,
 3;561,343,211;,
 3;343,433,211;,
 3;433,230,211;,
 3;435,230,433;,
 3;230,435,376;,
 3;439,230,376;,
 3;186,260,188;,
 3;186,352,260;,
 3;352,404,260;,
 3;404,561,260;,
 3;404,343,561;,
 3;343,404,148;,
 3;148,437,343;,
 3;437,338,343;,
 3;338,433,343;,
 3;338,435,433;,
 3;338,470,435;,
 3;376,435,470;,
 3;331,352,186;,
 3;331,422,352;,
 3;422,449,352;,
 3;404,352,449;,
 3;404,449,148;,
 3;502,331,186;,
 3;331,502,227;,
 3;227,505,331;,
 3;505,567,331;,
 3;422,331,567;,
 3;422,567,322;,
 3;148,422,322;,
 3;422,148,449;,
 3;505,227,209;,
 3;322,505,209;,
 3;505,322,567;,
 3;209,407,322;,
 3;407,560,322;,
 3;576,322,560;,
 3;322,576,148;,
 3;576,464,148;,
 3;437,148,464;,
 3;294,407,209;,
 3;294,540,407;,
 3;540,274,407;,
 3;407,274,560;,
 3;576,560,274;,
 3;297,576,274;,
 3;576,297,464;,
 3;437,464,297;,
 3;338,437,297;,
 3;553,294,209;,
 3;294,553,306;,
 3;306,370,294;,
 3;370,363,294;,
 3;294,363,542;,
 3;294,542,540;,
 3;540,542,562;,
 3;274,540,562;,
 3;305,553,209;,
 3;553,305,306;,
 3;90,106,105;,
 3;106,116,105;,
 3;116,104,105;,
 3;104,113,105;,
 3;113,91,105;,
 3;91,113,115;,
 3;113,114,115;,
 3;103,115,114;,
 3;106,117,116;,
 3;112,116,117;,
 3;104,116,112;,
 3;104,112,102;,
 3;114,104,102;,
 3;104,114,113;,
 3;93,112,117;,
 3;112,93,102;,
 3;103,114,102;,
 3;92,103,102;,
 3;81,79,78;,
 3;81,80,79;,
 3;89,87,86;,
 3;89,88,87;,
 3;97,95,94;,
 3;97,96,95;,
 3;101,99,98;,
 3;101,100,99;,
 3;274,562,515;,
 3;515,562,372;,
 3;171,515,372;,
 3;515,171,383;,
 3;515,383,297;,
 3;274,515,297;,
 3;328,372,562;,
 3;328,471,372;,
 3;372,471,450;,
 3;171,372,450;,
 3;171,450,512;,
 3;171,512,488;,
 3;171,488,383;,
 3;488,551,383;,
 3;297,383,551;,
 3;297,551,338;,
 3;328,562,542;,
 3;328,542,386;,
 3;328,386,490;,
 3;328,490,471;,
 3;471,490,406;,
 3;243,471,406;,
 3;243,450,471;,
 3;243,361,450;,
 3;450,361,512;,
 3;386,542,363;,
 3;161,386,363;,
 3;161,400,386;,
 3;400,490,386;,
 3;237,490,400;,
 3;237,406,490;,
 3;237,448,406;,
 3;446,406,448;,
 3;243,406,446;,
 3;243,446,364;,
 3;243,364,361;,
 3;370,161,363;,
 3;161,370,285;,
 3;285,524,161;,
 3;524,416,161;,
 3;161,416,400;,
 3;416,425,400;,
 3;237,400,425;,
 3;237,425,408;,
 3;237,408,448;,
 3;370,543,285;,
 3;595,285,543;,
 3;285,595,223;,
 3;223,393,285;,
 3;393,282,285;,
 3;282,524,285;,
 3;370,306,543;,
 3;595,543,306;,
 3;268,393,223;,
 3;268,592,393;,
 3;592,282,393;,
 3;282,592,522;,
 3;282,522,500;,
 3;282,500,528;,
 3;282,528,524;,
 3;528,355,524;,
 3;524,355,416;,
 3;268,554,592;,
 3;522,592,554;,
 3;345,522,554;,
 3;345,395,522;,
 3;500,522,395;,
 3;162,500,395;,
 3;162,415,500;,
 3;415,528,500;,
 3;355,528,415;,
 3;268,366,554;,
 3;445,554,366;,
 3;345,554,445;,
 3;345,445,556;,
 3;345,556,539;,
 3;345,539,395;,
 3;395,539,504;,
 3;162,395,504;,
 3;466,366,268;,
 3;466,159,366;,
 3;159,445,366;,
 3;159,365,445;,
 3;365,556,445;,
 3;267,556,365;,
 3;267,594,556;,
 3;594,539,556;,
 3;286,539,594;,
 3;286,504,539;,
 3;159,466,499;,
 3;159,499,454;,
 3;159,454,365;,
 3;454,523,365;,
 3;267,365,523;,
 3;267,523,547;,
 3;267,547,414;,
 3;594,267,414;,
 3;286,594,414;,
 3;499,573,454;,
 3;315,454,573;,
 3;315,523,454;,
 3;315,580,523;,
 3;580,547,523;,
 3;347,547,580;,
 3;347,477,547;,
 3;414,547,477;,
 3;220,414,477;,
 3;286,414,220;,
 3;315,573,482;,
 3;315,482,399;,
 3;315,399,580;,
 3;493,580,399;,
 3;347,580,493;,
 3;347,493,585;,
 3;347,585,530;,
 3;347,530,477;,
 3;477,530,401;,
 3;220,477,401;,
 3;491,482,573;,
 3;245,482,491;,
 3;245,461,482;,
 3;399,482,461;,
 3;202,399,461;,
 3;202,493,399;,
 3;202,418,493;,
 3;418,585,493;,
 3;298,585,418;,
 3;298,550,585;,
 3;550,530,585;,
 3;290,530,550;,
 3;290,401,530;,
 3;245,371,461;,
 3;461,371,428;,
 3;202,461,428;,
 3;202,428,495;,
 3;418,202,495;,
 3;418,495,350;,
 3;298,418,350;,
 3;350,535,298;,
 3;535,537,298;,
 3;298,537,359;,
 3;298,359,550;,
 3;288,428,371;,
 3;288,529,428;,
 3;428,529,495;,
 3;350,495,529;,
 3;350,529,319;,
 3;319,424,350;,
 3;424,136,350;,
 3;535,350,136;,
 3;273,535,136;,
 3;535,273,537;,
 3;273,483,537;,
 3;359,537,483;,
 3;529,288,544;,
 3;529,544,319;,
 3;136,392,273;,
 3;392,270,273;,
 3;520,273,270;,
 3;273,520,483;,
 3;483,520,398;,
 3;163,483,398;,
 3;163,359,483;,
 3;163,506,359;,
 3;506,550,359;,
 3;290,550,506;,
 3;329,520,270;,
 3;329,398,520;,
 3;329,569,398;,
 3;398,569,397;,
 3;163,398,397;,
 3;163,397,373;,
 3;163,373,506;,
 3;373,558,506;,
 3;290,506,558;,
 3;290,558,596;,
 3;290,596,401;,
 3;270,465,329;,
 3;465,168,329;,
 3;566,329,168;,
 3;569,329,566;,
 3;332,569,566;,
 3;332,397,569;,
 3;332,583,397;,
 3;397,583,373;,
 3;307,373,583;,
 3;307,558,373;,
 3;307,531,558;,
 3;596,558,531;,
 3;323,566,168;,
 3;332,566,323;,
 3;367,332,323;,
 3;332,367,541;,
 3;332,541,583;,
 3;583,541,552;,
 3;307,583,552;,
 3;307,552,460;,
 3;307,460,531;,
 3;168,501,323;,
 3;501,289,323;,
 3;526,323,289;,
 3;323,526,182;,
 3;182,367,323;,
 3;182,390,367;,
 3;390,541,367;,
 3;295,541,390;,
 3;295,552,541;,
 3;295,484,552;,
 3;460,552,484;,
 3;272,526,289;,
 3;526,272,182;,
 3;468,182,272;,
 3;182,468,309;,
 3;309,555,182;,
 3;555,390,182;,
 3;555,295,390;,
 3;525,295,555;,
 3;295,525,484;,
 3;484,525,413;,
 3;156,484,413;,
 3;156,460,484;,
 3;284,468,272;,
 3;468,284,309;,
 3;584,309,284;,
 3;309,584,221;,
 3;221,381,309;,
 3;381,253,309;,
 3;253,555,309;,
 3;253,525,555;,
 3;253,413,525;,
 3;253,532,413;,
 3;413,532,453;,
 3;156,413,453;,
 3;330,584,284;,
 3;584,330,221;,
 3;239,221,330;,
 3;238,221,239;,
 3;221,238,354;,
 3;354,381,221;,
 3;354,564,381;,
 3;564,253,381;,
 3;253,564,532;,
 3;564,578,532;,
 3;308,532,578;,
 3;308,453,532;,
 3;222,238,239;,
 3;222,472,238;,
 3;472,353,238;,
 3;238,353,354;,
 3;353,509,354;,
 3;509,517,354;,
 3;354,517,578;,
 3;354,578,564;,
 3;472,222,251;,
 3;353,472,251;,
 3;251,534,353;,
 3;534,311,353;,
 3;509,353,311;,
 3;207,509,311;,
 3;509,207,517;,
 3;207,434,517;,
 3;434,578,517;,
 3;308,578,434;,
 3;308,434,442;,
 3;308,442,565;,
 3;308,565,453;,
 3;155,534,251;,
 3;155,514,534;,
 3;514,311,534;,
 3;311,514,447;,
 3;311,447,341;,
 3;341,486,311;,
 3;311,486,207;,
 3;486,492,207;,
 3;207,492,511;,
 3;207,511,434;,
 3;514,155,447;,
 3;447,155,313;,
 3;341,447,313;,
 3;313,496,341;,
 3;496,419,341;,
 3;341,419,475;,
 3;341,475,438;,
 3;341,438,486;,
 3;438,228,486;,
 3;486,228,492;,
 3;575,313,155;,
 3;313,575,275;,
 3;275,405,313;,
 3;405,444,313;,
 3;313,444,496;,
 3;489,496,444;,
 3;232,496,489;,
 3;496,232,419;,
 3;304,575,155;,
 3;575,304,275;,
 3;170,275,304;,
 3;170,342,275;,
 3;342,521,275;,
 3;521,593,275;,
 3;275,593,405;,
 3;405,593,410;,
 3;208,405,410;,
 3;405,208,444;,
 3;208,489,444;,
 3;208,479,489;,
 3;479,374,489;,
 3;232,489,374;,
 3;521,342,167;,
 3;279,521,167;,
 3;521,279,593;,
 3;279,410,593;,
 3;279,533,410;,
 3;410,533,481;,
 3;208,410,481;,
 3;208,481,479;,
 3;481,451,479;,
 3;244,479,451;,
 3;244,374,479;,
 3;167,362,279;,
 3;362,548,279;,
 3;279,548,533;,
 3;533,548,581;,
 3;334,533,581;,
 3;334,481,533;,
 3;334,451,481;,
 3;334,570,451;,
 3;452,451,570;,
 3;244,451,452;,
 3;362,167,326;,
 3;302,362,326;,
 3;362,302,548;,
 3;302,581,548;,
 3;302,456,581;,
 3;429,581,456;,
 3;334,581,429;,
 3;334,429,570;,
 3;432,570,429;,
 3;337,570,432;,
 3;337,452,570;,
 3;326,577,302;,
 3;577,557,302;,
 3;302,557,456;,
 3;456,557,480;,
 3;153,456,480;,
 3;153,429,456;,
 3;153,432,429;,
 3;153,494,432;,
 3;494,568,432;,
 3;337,432,568;,
 3;577,296,557;,
 3;296,480,557;,
 3;296,545,480;,
 3;480,545,487;,
 3;153,480,487;,
 3;494,153,487;,
 3;494,487,324;,
 3;327,494,324;,
 3;327,568,494;,
 3;327,474,568;,
 3;474,440,568;,
 3;337,568,440;,
 3;324,487,545;,
 3;324,572,327;,
 3;572,574,327;,
 3;441,327,574;,
 3;327,441,474;,
 3;384,474,441;,
 3;242,474,384;,
 3;242,440,474;,
 3;242,469,440;,
 3;385,440,469;,
 3;337,440,385;,
 3;337,385,452;,
 3;572,357,574;,
 3;441,574,357;,
 3;213,441,357;,
 3;213,384,441;,
 3;213,411,384;,
 3;411,380,384;,
 3;242,384,380;,
 3;242,380,389;,
 3;242,389,469;,
 3;469,389,421;,
 3;201,469,421;,
 3;201,385,469;,
 3;357,439,213;,
 3;439,376,213;,
 3;213,376,470;,
 3;213,470,411;,
 3;470,536,411;,
 3;291,411,536;,
 3;291,380,411;,
 3;291,591,380;,
 3;380,591,389;,
 3;277,389,591;,
 3;277,421,389;,
 3;277,589,421;,
 3;421,589,420;,
 3;201,421,420;,
 3;338,536,470;,
 3;551,536,338;,
 3;551,291,536;,
 3;291,551,488;,
 3;291,488,591;,
 3;512,591,488;,
 3;277,591,512;,
 3;277,512,361;,
 3;277,361,589;,
 3;589,361,364;,
 3;280,589,364;,
 3;280,420,589;,
 3;280,379,420;,
 3;420,379,478;,
 3;201,420,478;,
 3;201,478,463;,
 3;201,463,385;,
 3;463,452,385;,
 3;280,364,462;,
 3;280,462,588;,
 3;280,588,379;,
 3;375,379,588;,
 3;248,379,375;,
 3;248,478,379;,
 3;248,412,478;,
 3;478,412,463;,
 3;244,463,412;,
 3;244,452,463;,
 3;462,364,446;,
 3;109,462,446;,
 3;109,458,462;,
 3;458,588,462;,
 3;278,588,458;,
 3;278,375,588;,
 3;278,430,375;,
 3;485,375,430;,
 3;248,375,485;,
 3;248,485,369;,
 3;248,369,412;,
 3;109,446,448;,
 3;109,448,423;,
 3;109,423,476;,
 3;109,476,458;,
 3;476,590,458;,
 3;278,458,590;,
 3;278,590,402;,
 3;278,402,430;,
 3;430,402,513;,
 3;203,430,513;,
 3;203,485,430;,
 3;448,408,423;,
 3;236,423,408;,
 3;236,382,423;,
 3;423,382,476;,
 3;287,476,382;,
 3;287,590,476;,
 3;287,396,590;,
 3;396,402,590;,
 3;229,402,396;,
 3;229,513,402;,
 3;236,408,427;,
 3;236,427,409;,
 3;236,409,459;,
 3;236,459,382;,
 3;459,559,382;,
 3;287,382,559;,
 3;287,559,426;,
 3;287,426,396;,
 3;519,396,426;,
 3;229,396,519;,
 3;425,427,408;,
 3;355,427,425;,
 3;355,415,427;,
 3;409,427,415;,
 3;162,409,415;,
 3;162,378,409;,
 3;378,459,409;,
 3;303,459,378;,
 3;303,559,459;,
 3;303,431,559;,
 3;426,559,431;,
 3;355,425,416;,
 3;162,504,378;,
 3;504,546,378;,
 3;303,378,546;,
 3;303,546,586;,
 3;303,586,431;,
 3;431,586,503;,
 3;205,431,503;,
 3;205,426,431;,
 3;205,519,426;,
 3;286,546,504;,
 3;286,527,546;,
 3;527,586,546;,
 3;349,586,527;,
 3;349,503,586;,
 3;349,579,503;,
 3;503,579,436;,
 3;205,503,436;,
 3;205,436,497;,
 3;205,497,519;,
 3;497,388,519;,
 3;229,519,388;,
 3;220,527,286;,
 3;220,473,527;,
 3;473,349,527;,
 3;349,473,563;,
 3;579,349,563;,
 3;579,563,256;,
 3;310,579,256;,
 3;310,436,579;,
 3;310,443,436;,
 3;436,443,497;,
 3;225,497,443;,
 3;225,388,497;,
 3;220,403,473;,
 3;403,563,473;,
 3;256,563,403;,
 3;256,403,596;,
 3;256,596,531;,
 3;256,531,368;,
 3;256,368,310;,
 3;368,455,310;,
 3;310,455,565;,
 3;310,565,443;,
 3;220,401,403;,
 3;401,596,403;,
 3;442,443,565;,
 3;225,443,442;,
 3;225,442,511;,
 3;225,511,387;,
 3;225,387,388;,
 3;387,391,388;,
 3;229,388,391;,
 3;229,391,513;,
 3;511,442,434;,
 3;492,387,511;,
 3;228,387,492;,
 3;228,391,387;,
 3;228,508,391;,
 3;513,391,508;,
 3;203,513,508;,
 3;203,508,475;,
 3;203,475,518;,
 3;203,518,485;,
 3;518,369,485;,
 3;228,438,508;,
 3;508,438,475;,
 3;475,419,518;,
 3;232,518,419;,
 3;232,369,518;,
 3;232,374,369;,
 3;374,412,369;,
 3;244,412,374;,
 3;453,565,455;,
 3;156,453,455;,
 3;368,156,455;,
 3;156,368,460;,
 3;368,531,460;;

 MeshNormals {
  598;
  0.000000;0.000000;-1.000000;,
  0.000000;0.000000;-1.000000;,
  0.000000;0.000000;-1.000000;,
  0.000000;0.000000;-1.000000;,
  0.000000;1.000000;0.000000;,
  0.000000;1.000000;0.000000;,
  0.000000;1.000000;0.000000;,
  0.000000;1.000000;0.000000;,
  0.000000;0.000000;1.000000;,
  0.000000;0.000000;1.000000;,
  0.000000;0.000000;1.000000;,
  0.000000;0.000000;1.000000;,
  0.000000;-1.000000;0.000000;,
  0.000000;-1.000000;0.000000;,
  0.000000;-1.000000;0.000000;,
  0.000000;-1.000000;0.000000;,
  1.000000;0.000000;0.000000;,
  1.000000;0.000000;0.000000;,
  1.000000;0.000000;0.000000;,
  1.000000;0.000000;0.000000;,
  -1.000000;0.000000;0.000000;,
  -1.000000;0.000000;0.000000;,
  -1.000000;0.000000;0.000000;,
  -1.000000;0.000000;0.000000;,
  -1.000000;0.000000;0.000000;,
  -1.000000;0.000000;0.000000;,
  -1.000000;0.000000;0.000000;,
  -1.000000;0.000000;0.000000;,
  -1.000000;0.000000;0.000000;,
  1.000000;0.000000;0.000000;,
  1.000000;0.000000;0.000000;,
  1.000000;0.000000;0.000000;,
  1.000000;0.000000;0.000000;,
  1.000000;0.000000;0.000000;,
  0.000000;-1.000000;0.000000;,
  0.000000;-1.000000;0.000000;,
  0.000000;-1.000000;0.000000;,
  0.000000;-1.000000;0.000000;,
  0.000000;-1.000000;0.000000;,
  0.000000;0.000000;1.000000;,
  0.000000;0.000000;1.000000;,
  0.000000;0.000000;1.000000;,
  0.000000;0.000000;1.000000;,
  0.000000;0.000000;1.000000;,
  0.000000;0.000000;-1.000000;,
  0.000000;0.000000;-1.000000;,
  0.000000;0.000000;-1.000000;,
  0.000000;0.000000;-1.000000;,
  0.000000;0.000000;-1.000000;,
  0.000000;-1.000000;0.000000;,
  0.000000;-1.000000;0.000000;,
  0.000000;-1.000000;0.000000;,
  0.000000;-1.000000;0.000000;,
  0.000000;-1.000000;0.000000;,
  0.000000;-1.000000;0.000000;,
  0.000000;-1.000000;0.000000;,
  0.000000;-1.000000;0.000000;,
  0.000000;-1.000000;0.000000;,
  0.000000;-1.000000;0.000000;,
  0.000000;-1.000000;0.000000;,
  0.000000;-1.000000;0.000000;,
  0.000000;-1.000000;0.000000;,
  0.000000;-1.000000;0.000000;,
  0.000000;-1.000000;0.000000;,
  0.000000;-1.000000;0.000000;,
  1.000000;0.000000;0.000000;,
  1.000000;0.000000;0.000000;,
  1.000000;0.000000;0.000000;,
  0.000000;0.000000;1.000000;,
  0.000000;0.000000;1.000000;,
  0.000000;0.000000;1.000000;,
  0.000000;0.000000;-1.000000;,
  0.000000;0.000000;-1.000000;,
  0.000000;0.000000;-1.000000;,
  0.000000;0.000000;1.000000;,
  0.000000;0.000000;1.000000;,
  0.000000;0.000000;-1.000000;,
  0.000000;0.000000;-1.000000;,
  0.000000;0.000000;-1.000000;,
  0.000000;0.000000;-1.000000;,
  0.000000;0.000000;-1.000000;,
  0.000000;0.000000;-1.000000;,
  0.000000;1.000000;0.000000;,
  0.000000;1.000000;0.000000;,
  0.000000;1.000000;0.000000;,
  0.000000;1.000000;0.000000;,
  0.000000;0.000000;1.000000;,
  0.000000;0.000000;1.000000;,
  0.000000;0.000000;1.000000;,
  0.000000;0.000000;1.000000;,
  0.000000;-1.000000;0.000000;,
  0.000000;-1.000000;0.000000;,
  0.000000;-1.000000;0.000000;,
  0.000000;-1.000000;0.000000;,
  1.000000;0.000000;0.000000;,
  1.000000;0.000000;0.000000;,
  1.000000;0.000000;0.000000;,
  1.000000;0.000000;0.000000;,
  -1.000000;0.000000;0.000000;,
  -1.000000;0.000000;0.000000;,
  -1.000000;0.000000;0.000000;,
  -1.000000;0.000000;0.000000;,
  0.000000;-1.000000;0.000000;,
  0.000000;-1.000000;0.000000;,
  0.000000;-1.000000;0.000000;,
  0.000000;-1.000000;0.000000;,
  0.000000;-1.000000;0.000000;,
  0.000000;1.000000;0.000000;,
  0.000000;1.000000;0.000000;,
  0.000000;1.000000;0.000000;,
  0.000000;1.000000;0.000000;,
  0.000000;1.000000;0.000000;,
  0.000000;-1.000000;0.000000;,
  0.000000;-1.000000;0.000000;,
  0.000000;-1.000000;0.000000;,
  0.000000;-1.000000;0.000000;,
  0.000000;-1.000000;0.000000;,
  0.000000;-1.000000;0.000000;,
  0.000000;1.000000;0.000000;,
  0.000000;1.000000;0.000000;,
  0.000000;1.000000;0.000000;,
  0.000000;1.000000;0.000000;,
  0.000000;1.000000;0.000000;,
  0.000000;1.000000;0.000000;,
  0.000000;1.000000;0.000000;,
  0.000000;1.000000;0.000000;,
  0.000000;1.000000;0.000000;,
  0.000000;1.000000;0.000000;,
  0.000000;1.000000;0.000000;,
  0.000000;1.000000;0.000000;,
  0.000000;1.000000;0.000000;,
  0.000000;1.000000;0.000000;,
  0.000000;1.000000;0.000000;,
  0.000000;1.000000;0.000000;,
  0.000000;1.000000;0.000000;,
  0.000000;1.000000;0.000000;,
  0.000000;1.000000;0.000000;,
  0.000000;1.000000;0.000000;,
  0.000000;1.000000;0.000000;,
  0.000000;1.000000;0.000000;,
  0.000000;1.000000;0.000000;,
  0.000000;1.000000;0.000000;,
  0.000000;1.000000;0.000000;,
  0.000000;1.000000;0.000000;,
  0.000000;1.000000;0.000000;,
  0.000000;1.000000;0.000000;,
  0.000000;1.000000;0.000000;,
  0.000000;1.000000;0.000000;,
  0.000000;1.000000;0.000000;,
  0.000000;1.000000;0.000000;,
  0.000000;1.000000;0.000000;,
  0.000000;1.000000;0.000000;,
  0.000000;1.000000;0.000000;,
  0.000000;1.000000;0.000000;,
  0.000000;1.000000;0.000000;,
  0.000000;1.000000;0.000000;,
  0.000000;1.000000;0.000000;,
  0.000000;1.000000;0.000000;,
  0.000000;1.000000;0.000000;,
  0.000000;1.000000;0.000000;,
  0.000000;1.000000;0.000000;,
  0.000000;1.000000;0.000000;,
  0.000000;1.000000;0.000000;,
  0.000000;1.000000;0.000000;,
  0.000000;1.000000;0.000000;,
  0.000000;1.000000;0.000000;,
  0.000000;1.000000;0.000000;,
  0.000000;1.000000;0.000000;,
  0.000000;1.000000;0.000000;,
  0.000000;1.000000;0.000000;,
  0.000000;1.000000;0.000000;,
  0.000000;1.000000;0.000000;,
  0.000000;1.000000;0.000000;,
  0.000000;1.000000;0.000000;,
  0.000000;1.000000;0.000000;,
  0.000000;1.000000;0.000000;,
  0.000000;1.000000;0.000000;,
  0.000000;1.000000;0.000000;,
  0.000000;1.000000;0.000000;,
  0.000000;1.000000;0.000000;,
  0.000000;1.000000;0.000000;,
  0.000000;1.000000;0.000000;,
  0.000000;1.000000;0.000000;,
  0.000000;1.000000;0.000000;,
  0.000000;1.000000;0.000000;,
  0.000000;1.000000;0.000000;,
  0.000000;1.000000;0.000000;,
  0.000000;1.000000;0.000000;,
  0.000000;1.000000;0.000000;,
  0.000000;1.000000;0.000000;,
  0.000000;1.000000;0.000000;,
  0.000000;1.000000;0.000000;,
  0.000000;1.000000;0.000000;,
  0.000000;1.000000;0.000000;,
  0.000000;1.000000;0.000000;,
  0.000000;1.000000;0.000000;,
  0.000000;1.000000;0.000000;,
  0.000000;1.000000;0.000000;,
  0.000000;1.000000;0.000000;,
  0.000000;1.000000;0.000000;,
  0.000000;1.000000;0.000000;,
  0.000000;1.000000;0.000000;,
  0.000000;1.000000;0.000000;,
  0.000000;1.000000;0.000000;,
  0.000000;1.000000;0.000000;,
  0.000000;1.000000;0.000000;,
  0.000000;1.000000;0.000000;,
  0.000000;1.000000;0.000000;,
  0.000000;1.000000;0.000000;,
  0.000000;1.000000;0.000000;,
  0.000000;1.000000;0.000000;,
  0.000000;1.000000;0.000000;,
  0.000000;1.000000;0.000000;,
  0.000000;1.000000;0.000000;,
  0.000000;1.000000;0.000000;,
  0.000000;1.000000;0.000000;,
  0.000000;1.000000;0.000000;,
  0.000000;1.000000;0.000000;,
  0.000000;1.000000;0.000000;,
  0.000000;1.000000;0.000000;,
  0.000000;1.000000;0.000000;,
  0.000000;1.000000;0.000000;,
  0.000000;1.000000;0.000000;,
  0.000000;1.000000;0.000000;,
  0.000000;1.000000;0.000000;,
  0.000000;1.000000;0.000000;,
  0.000000;1.000000;0.000000;,
  0.000000;1.000000;0.000000;,
  0.000000;1.000000;0.000000;,
  0.000000;1.000000;0.000000;,
  0.000000;1.000000;0.000000;,
  0.000000;1.000000;0.000000;,
  0.000000;1.000000;0.000000;,
  0.000000;1.000000;0.000000;,
  0.000000;1.000000;0.000000;,
  0.000000;1.000000;0.000000;,
  0.000000;1.000000;0.000000;,
  0.000000;1.000000;0.000000;,
  0.000000;1.000000;0.000000;,
  0.000000;1.000000;0.000000;,
  0.000000;1.000000;0.000000;,
  0.000000;1.000000;0.000000;,
  0.000000;1.000000;0.000000;,
  0.000000;1.000000;0.000000;,
  0.000000;1.000000;0.000000;,
  0.000000;1.000000;0.000000;,
  0.000000;1.000000;0.000000;,
  0.000000;1.000000;0.000000;,
  0.000000;1.000000;0.000000;,
  0.000000;1.000000;0.000000;,
  0.000000;1.000000;0.000000;,
  0.000000;1.000000;0.000000;,
  0.000000;1.000000;0.000000;,
  0.000000;1.000000;0.000000;,
  0.000000;1.000000;0.000000;,
  0.000000;1.000000;0.000000;,
  0.000000;1.000000;0.000000;,
  0.000000;1.000000;0.000000;,
  0.000000;1.000000;0.000000;,
  0.000000;1.000000;0.000000;,
  0.000000;1.000000;0.000000;,
  0.000000;1.000000;0.000000;,
  0.000000;1.000000;0.000000;,
  0.000000;1.000000;0.000000;,
  0.000000;1.000000;0.000000;,
  0.000000;1.000000;0.000000;,
  0.000000;1.000000;0.000000;,
  0.000000;1.000000;0.000000;,
  0.000000;1.000000;0.000000;,
  0.000000;1.000000;0.000000;,
  0.000000;1.000000;0.000000;,
  0.000000;1.000000;0.000000;,
  0.000000;1.000000;0.000000;,
  0.000000;1.000000;0.000000;,
  0.000000;1.000000;0.000000;,
  0.000000;1.000000;0.000000;,
  0.000000;1.000000;0.000000;,
  0.000000;1.000000;0.000000;,
  0.000000;1.000000;0.000000;,
  0.000000;1.000000;0.000000;,
  0.000000;1.000000;0.000000;,
  0.000000;1.000000;0.000000;,
  0.000000;1.000000;0.000000;,
  0.000000;1.000000;0.000000;,
  0.000000;1.000000;0.000000;,
  0.000000;1.000000;0.000000;,
  0.000000;1.000000;0.000000;,
  0.000000;1.000000;0.000000;,
  0.000000;1.000000;0.000000;,
  0.000000;1.000000;0.000000;,
  0.000000;1.000000;0.000000;,
  0.000000;1.000000;0.000000;,
  0.000000;1.000000;0.000000;,
  0.000000;1.000000;0.000000;,
  0.000000;1.000000;0.000000;,
  0.000000;1.000000;0.000000;,
  0.000000;1.000000;0.000000;,
  0.000000;1.000000;0.000000;,
  0.000000;1.000000;0.000000;,
  0.000000;1.000000;0.000000;,
  0.000000;1.000000;0.000000;,
  0.000000;1.000000;0.000000;,
  0.000000;1.000000;0.000000;,
  0.000000;1.000000;0.000000;,
  0.000000;1.000000;0.000000;,
  0.000000;1.000000;0.000000;,
  0.000000;1.000000;0.000000;,
  0.000000;1.000000;0.000000;,
  0.000000;1.000000;0.000000;,
  0.000000;1.000000;0.000000;,
  0.000000;1.000000;0.000000;,
  0.000000;1.000000;0.000000;,
  0.000000;1.000000;0.000000;,
  0.000000;1.000000;0.000000;,
  0.000000;1.000000;0.000000;,
  0.000000;1.000000;0.000000;,
  0.000000;1.000000;0.000000;,
  0.000000;1.000000;0.000000;,
  0.000000;1.000000;0.000000;,
  0.000000;1.000000;0.000000;,
  0.000000;1.000000;0.000000;,
  0.000000;1.000000;0.000000;,
  0.000000;1.000000;0.000000;,
  0.000000;1.000000;0.000000;,
  0.000000;1.000000;0.000000;,
  0.000000;1.000000;0.000000;,
  0.000000;1.000000;0.000000;,
  0.000000;1.000000;0.000000;,
  0.000000;1.000000;0.000000;,
  0.000000;1.000000;0.000000;,
  0.000000;1.000000;0.000000;,
  0.000000;1.000000;0.000000;,
  0.000000;1.000000;0.000000;,
  0.000000;1.000000;0.000000;,
  0.000000;1.000000;0.000000;,
  0.000000;1.000000;0.000000;,
  0.000000;1.000000;0.000000;,
  0.000000;1.000000;0.000000;,
  0.000000;1.000000;0.000000;,
  0.000000;1.000000;0.000000;,
  0.000000;1.000000;0.000000;,
  0.000000;1.000000;0.000000;,
  0.000000;1.000000;0.000000;,
  0.000000;1.000000;0.000000;,
  0.000000;1.000000;0.000000;,
  0.000000;1.000000;0.000000;,
  0.000000;1.000000;0.000000;,
  0.000000;1.000000;0.000000;,
  0.000000;1.000000;0.000000;,
  0.000000;1.000000;0.000000;,
  0.000000;1.000000;0.000000;,
  0.000000;1.000000;0.000000;,
  0.000000;1.000000;0.000000;,
  0.000000;1.000000;0.000000;,
  0.000000;1.000000;0.000000;,
  0.000000;1.000000;0.000000;,
  0.000000;1.000000;0.000000;,
  0.000000;1.000000;0.000000;,
  0.000000;1.000000;0.000000;,
  0.000000;1.000000;0.000000;,
  0.000000;1.000000;0.000000;,
  0.000000;1.000000;0.000000;,
  0.000000;1.000000;0.000000;,
  0.000000;1.000000;0.000000;,
  0.000000;1.000000;0.000000;,
  0.000000;1.000000;0.000000;,
  0.000000;1.000000;0.000000;,
  0.000000;1.000000;0.000000;,
  0.000000;1.000000;0.000000;,
  0.000000;1.000000;0.000000;,
  0.000000;1.000000;0.000000;,
  0.000000;1.000000;0.000000;,
  0.000000;1.000000;0.000000;,
  0.000000;1.000000;0.000000;,
  0.000000;1.000000;0.000000;,
  0.000000;1.000000;0.000000;,
  0.000000;1.000000;0.000000;,
  0.000000;1.000000;0.000000;,
  0.000000;1.000000;0.000000;,
  0.000000;1.000000;0.000000;,
  0.000000;1.000000;0.000000;,
  0.000000;1.000000;0.000000;,
  0.000000;1.000000;0.000000;,
  0.000000;1.000000;0.000000;,
  0.000000;1.000000;0.000000;,
  0.000000;1.000000;0.000000;,
  0.000000;1.000000;0.000000;,
  0.000000;1.000000;0.000000;,
  0.000000;1.000000;0.000000;,
  0.000000;1.000000;0.000000;,
  0.000000;1.000000;0.000000;,
  0.000000;1.000000;0.000000;,
  0.000000;1.000000;0.000000;,
  0.000000;1.000000;0.000000;,
  0.000000;1.000000;0.000000;,
  0.000000;1.000000;0.000000;,
  0.000000;1.000000;0.000000;,
  0.000000;1.000000;0.000000;,
  0.000000;1.000000;0.000000;,
  0.000000;1.000000;0.000000;,
  0.000000;1.000000;0.000000;,
  0.000000;1.000000;0.000000;,
  0.000000;1.000000;0.000000;,
  0.000000;1.000000;0.000000;,
  0.000000;1.000000;0.000000;,
  0.000000;1.000000;0.000000;,
  0.000000;1.000000;0.000000;,
  0.000000;1.000000;0.000000;,
  0.000000;1.000000;0.000000;,
  0.000000;1.000000;0.000000;,
  0.000000;1.000000;0.000000;,
  0.000000;1.000000;0.000000;,
  0.000000;1.000000;0.000000;,
  0.000000;1.000000;0.000000;,
  0.000000;1.000000;0.000000;,
  0.000000;1.000000;0.000000;,
  0.000000;1.000000;0.000000;,
  0.000000;1.000000;0.000000;,
  0.000000;1.000000;0.000000;,
  0.000000;1.000000;0.000000;,
  0.000000;1.000000;0.000000;,
  0.000000;1.000000;0.000000;,
  0.000000;1.000000;0.000000;,
  0.000000;1.000000;0.000000;,
  0.000000;1.000000;0.000000;,
  0.000000;1.000000;0.000000;,
  0.000000;1.000000;0.000000;,
  0.000000;1.000000;0.000000;,
  0.000000;1.000000;0.000000;,
  0.000000;1.000000;0.000000;,
  0.000000;1.000000;0.000000;,
  0.000000;1.000000;0.000000;,
  0.000000;1.000000;0.000000;,
  0.000000;1.000000;0.000000;,
  0.000000;1.000000;0.000000;,
  0.000000;1.000000;0.000000;,
  0.000000;1.000000;0.000000;,
  0.000000;1.000000;0.000000;,
  0.000000;1.000000;0.000000;,
  0.000000;1.000000;0.000000;,
  0.000000;1.000000;0.000000;,
  0.000000;1.000000;0.000000;,
  0.000000;1.000000;0.000000;,
  0.000000;1.000000;0.000000;,
  0.000000;1.000000;0.000000;,
  0.000000;1.000000;0.000000;,
  0.000000;1.000000;0.000000;,
  0.000000;1.000000;0.000000;,
  0.000000;1.000000;0.000000;,
  0.000000;1.000000;0.000000;,
  0.000000;1.000000;0.000000;,
  0.000000;1.000000;0.000000;,
  0.000000;1.000000;0.000000;,
  0.000000;1.000000;0.000000;,
  0.000000;1.000000;0.000000;,
  0.000000;1.000000;0.000000;,
  0.000000;1.000000;0.000000;,
  0.000000;1.000000;0.000000;,
  0.000000;1.000000;0.000000;,
  0.000000;1.000000;0.000000;,
  0.000000;1.000000;0.000000;,
  0.000000;1.000000;0.000000;,
  0.000000;1.000000;0.000000;,
  0.000000;1.000000;0.000000;,
  0.000000;1.000000;0.000000;,
  0.000000;1.000000;0.000000;,
  0.000000;1.000000;0.000000;,
  0.000000;1.000000;0.000000;,
  0.000000;1.000000;0.000000;,
  0.000000;1.000000;0.000000;,
  0.000000;1.000000;0.000000;,
  0.000000;1.000000;0.000000;,
  0.000000;1.000000;0.000000;,
  0.000000;1.000000;0.000000;,
  0.000000;1.000000;0.000000;,
  0.000000;1.000000;0.000000;,
  0.000000;1.000000;0.000000;,
  0.000000;1.000000;0.000000;,
  0.000000;1.000000;0.000000;,
  0.000000;1.000000;0.000000;,
  0.000000;1.000000;0.000000;,
  0.000000;1.000000;0.000000;,
  0.000000;1.000000;0.000000;,
  0.000000;1.000000;0.000000;,
  0.000000;1.000000;0.000000;,
  0.000000;1.000000;0.000000;,
  0.000000;1.000000;0.000000;,
  0.000000;1.000000;0.000000;,
  0.000000;1.000000;0.000000;,
  0.000000;1.000000;0.000000;,
  0.000000;1.000000;0.000000;,
  0.000000;1.000000;0.000000;,
  0.000000;1.000000;0.000000;,
  0.000000;1.000000;0.000000;,
  0.000000;1.000000;0.000000;,
  0.000000;1.000000;0.000000;,
  0.000000;1.000000;0.000000;,
  0.000000;1.000000;0.000000;,
  0.000000;1.000000;0.000000;,
  0.000000;1.000000;0.000000;,
  0.000000;1.000000;0.000000;,
  0.000000;1.000000;0.000000;,
  0.000000;1.000000;0.000000;,
  0.000000;1.000000;0.000000;,
  0.000000;1.000000;0.000000;,
  0.000000;1.000000;0.000000;,
  0.000000;1.000000;0.000000;,
  0.000000;1.000000;0.000000;,
  0.000000;1.000000;0.000000;,
  0.000000;1.000000;0.000000;,
  0.000000;1.000000;0.000000;,
  0.000000;1.000000;0.000000;,
  0.000000;1.000000;0.000000;,
  0.000000;1.000000;0.000000;,
  0.000000;1.000000;0.000000;,
  0.000000;1.000000;0.000000;,
  0.000000;1.000000;0.000000;,
  0.000000;1.000000;0.000000;,
  0.000000;1.000000;0.000000;,
  0.000000;1.000000;0.000000;,
  0.000000;1.000000;0.000000;,
  0.000000;1.000000;0.000000;,
  0.000000;1.000000;0.000000;,
  0.000000;1.000000;0.000000;,
  0.000000;1.000000;0.000000;,
  0.000000;1.000000;0.000000;,
  0.000000;1.000000;0.000000;,
  0.000000;1.000000;0.000000;,
  0.000000;1.000000;0.000000;,
  0.000000;1.000000;0.000000;,
  0.000000;1.000000;0.000000;,
  0.000000;1.000000;0.000000;,
  0.000000;1.000000;0.000000;,
  0.000000;1.000000;0.000000;,
  0.000000;1.000000;0.000000;,
  0.000000;1.000000;0.000000;,
  0.000000;1.000000;0.000000;,
  0.000000;1.000000;0.000000;,
  0.000000;1.000000;0.000000;,
  0.000000;1.000000;0.000000;,
  0.000000;1.000000;0.000000;,
  0.000000;1.000000;0.000000;,
  0.000000;1.000000;0.000000;,
  0.000000;1.000000;0.000000;,
  0.000000;1.000000;0.000000;,
  0.000000;1.000000;0.000000;,
  0.000000;1.000000;0.000000;,
  0.000000;1.000000;0.000000;,
  0.000000;1.000000;0.000000;,
  0.000000;1.000000;0.000000;,
  0.000000;1.000000;0.000000;,
  0.000000;1.000000;0.000000;,
  0.000000;1.000000;0.000000;,
  0.000000;1.000000;0.000000;,
  0.000000;1.000000;0.000000;,
  0.000000;1.000000;0.000000;,
  0.000000;1.000000;0.000000;,
  0.000000;1.000000;0.000000;,
  0.000000;1.000000;0.000000;,
  0.000000;1.000000;0.000000;,
  0.000000;1.000000;0.000000;,
  0.000000;1.000000;0.000000;,
  0.000000;1.000000;0.000000;,
  0.000000;1.000000;0.000000;,
  0.000000;1.000000;0.000000;,
  0.000000;1.000000;0.000000;,
  0.000000;1.000000;0.000000;,
  0.000000;1.000000;0.000000;,
  0.000000;1.000000;0.000000;,
  0.000000;1.000000;0.000000;,
  0.000000;1.000000;0.000000;,
  0.000000;1.000000;0.000000;,
  0.000000;1.000000;0.000000;,
  0.000000;1.000000;0.000000;,
  0.000000;1.000000;0.000000;,
  0.000000;1.000000;0.000000;,
  0.000000;1.000000;0.000000;,
  0.000000;1.000000;0.000000;,
  0.000000;1.000000;0.000000;,
  0.000000;1.000000;0.000000;,
  0.000000;1.000000;0.000000;,
  0.000000;1.000000;0.000000;,
  0.000000;1.000000;0.000000;,
  0.000000;1.000000;0.000000;,
  0.000000;1.000000;0.000000;,
  0.000000;1.000000;0.000000;,
  0.000000;1.000000;0.000000;,
  0.000000;1.000000;0.000000;,
  0.000000;1.000000;0.000000;,
  0.000000;1.000000;0.000000;,
  0.000000;1.000000;0.000000;,
  0.000000;1.000000;0.000000;,
  0.000000;1.000000;0.000000;,
  0.000000;1.000000;0.000000;,
  0.000000;1.000000;0.000000;,
  0.000000;1.000000;0.000000;,
  0.000000;1.000000;0.000000;,
  0.000000;1.000000;0.000000;;
  1073;
  3;12,62,64;,
  3;62,63,64;,
  3;37,64,63;,
  3;37,63,61;,
  3;37,61,60;,
  3;60,61,55;,
  3;13,60,55;,
  3;13,55,57;,
  3;38,63,62;,
  3;38,58,63;,
  3;61,63,58;,
  3;36,61,58;,
  3;36,55,61;,
  3;36,56,55;,
  3;55,56,57;,
  3;35,57,56;,
  3;35,56,53;,
  3;35,53,52;,
  3;38,59,58;,
  3;51,58,59;,
  3;36,58,51;,
  3;36,51,50;,
  3;36,50,56;,
  3;53,56,50;,
  3;34,53,50;,
  3;34,54,53;,
  3;52,53,54;,
  3;14,52,54;,
  3;15,51,59;,
  3;15,49,51;,
  3;49,50,51;,
  3;34,50,49;,
  3;0,48,47;,
  3;46,47,48;,
  3;1,47,46;,
  3;1,46,45;,
  3;46,77,45;,
  3;73,45,77;,
  3;2,73,77;,
  3;2,77,44;,
  3;48,71,46;,
  3;76,46,71;,
  3;46,76,77;,
  3;76,44,77;,
  3;44,76,71;,
  3;44,71,3;,
  3;72,3,71;,
  3;48,72,71;,
  3;10,40,39;,
  3;39,40,41;,
  3;11,39,41;,
  3;11,41,43;,
  3;41,75,43;,
  3;68,43,75;,
  3;8,68,75;,
  3;8,75,42;,
  3;40,70,41;,
  3;74,41,70;,
  3;41,74,75;,
  3;74,42,75;,
  3;42,74,70;,
  3;42,70,9;,
  3;69,9,70;,
  3;40,69,70;,
  3;16,33,32;,
  3;31,32,33;,
  3;17,32,31;,
  3;17,31,30;,
  3;31,67,30;,
  3;30,67,18;,
  3;67,29,18;,
  3;33,66,31;,
  3;66,19,31;,
  3;65,31,19;,
  3;31,65,67;,
  3;65,29,67;,
  3;29,65,19;,
  3;20,28,27;,
  3;26,27,28;,
  3;21,27,26;,
  3;21,26,25;,
  3;24,25,26;,
  3;22,25,24;,
  3;23,26,28;,
  3;23,24,26;,
  3;7,5,4;,
  3;7,6,5;,
  3;82,131,133;,
  3;131,132,133;,
  3;132,147,133;,
  3;147,110,133;,
  3;110,147,151;,
  3;110,151,143;,
  3;110,143,129;,
  3;111,132,131;,
  3;139,132,111;,
  3;139,219,132;,
  3;219,149,132;,
  3;132,149,147;,
  3;149,214,147;,
  3;214,151,147;,
  3;151,214,173;,
  3;151,173,165;,
  3;151,165,143;,
  3;127,139,111;,
  3;127,188,139;,
  3;188,174,139;,
  3;139,174,219;,
  3;219,174,212;,
  3;149,219,212;,
  3;149,212,175;,
  3;149,175,214;,
  3;173,214,175;,
  3;146,127,111;,
  3;140,127,146;,
  3;140,218,127;,
  3;218,186,127;,
  3;127,186,188;,
  3;128,146,111;,
  3;120,146,128;,
  3;120,140,146;,
  3;120,195,140;,
  3;195,206,140;,
  3;140,206,218;,
  3;206,226,218;,
  3;226,227,218;,
  3;502,218,227;,
  3;218,502,186;,
  3;85,120,128;,
  3;85,118,120;,
  3;118,137,120;,
  3;137,135,120;,
  3;135,195,120;,
  3;135,200,195;,
  3;301,195,200;,
  3;195,301,206;,
  3;301,157,206;,
  3;157,226,206;,
  3;107,137,118;,
  3;107,158,137;,
  3;158,179,137;,
  3;137,179,135;,
  3;179,178,135;,
  3;178,346,135;,
  3;135,346,200;,
  3;107,150,158;,
  3;216,158,150;,
  3;158,216,196;,
  3;158,196,179;,
  3;196,119,179;,
  3;179,119,178;,
  3;119,252,178;,
  3;178,252,292;,
  3;178,292,346;,
  3;150,107,123;,
  3;122,150,123;,
  3;358,150,122;,
  3;150,358,160;,
  3;160,216,150;,
  3;160,198,216;,
  3;198,235,216;,
  3;235,196,216;,
  3;196,235,119;,
  3;121,122,123;,
  3;185,122,121;,
  3;183,122,185;,
  3;122,183,194;,
  3;194,358,122;,
  3;358,194,160;,
  3;84,121,123;,
  3;157,301,200;,
  3;200,339,157;,
  3;339,263,157;,
  3;510,157,263;,
  3;157,510,305;,
  3;157,305,226;,
  3;305,209,226;,
  3;226,209,227;,
  3;204,339,200;,
  3;204,351,339;,
  3;498,339,351;,
  3;339,498,263;,
  3;498,223,263;,
  3;595,263,223;,
  3;263,595,306;,
  3;306,510,263;,
  3;510,306,305;,
  3;346,204,200;,
  3;292,204,346;,
  3;204,292,247;,
  3;204,247,312;,
  3;204,312,351;,
  3;549,351,312;,
  3;351,549,223;,
  3;223,498,351;,
  3;247,292,252;,
  3;197,247,252;,
  3;516,247,197;,
  3;247,516,312;,
  3;516,571,312;,
  3;312,571,466;,
  3;312,466,268;,
  3;268,549,312;,
  3;549,268,223;,
  3;234,197,252;,
  3;234,417,197;,
  3;417,255,197;,
  3;507,197,255;,
  3;197,507,299;,
  3;299,516,197;,
  3;516,299,571;,
  3;299,499,571;,
  3;466,571,499;,
  3;119,234,252;,
  3;119,276,234;,
  3;417,234,276;,
  3;255,417,276;,
  3;177,255,276;,
  3;597,255,177;,
  3;255,597,245;,
  3;245,507,255;,
  3;507,245,491;,
  3;507,491,299;,
  3;299,491,573;,
  3;299,573,499;,
  3;119,231,276;,
  3;231,254,276;,
  3;177,276,254;,
  3;177,254,257;,
  3;377,177,257;,
  3;177,377,288;,
  3;288,597,177;,
  3;597,288,371;,
  3;597,371,245;,
  3;235,231,119;,
  3;235,198,231;,
  3;198,254,231;,
  3;198,233,254;,
  3;233,257,254;,
  3;199,257,233;,
  3;199,340,257;,
  3;319,257,340;,
  3;319,377,257;,
  3;377,319,544;,
  3;377,544,288;,
  3;233,198,160;,
  3;199,233,160;,
  3;160,300,199;,
  3;300,241,199;,
  3;269,199,241;,
  3;199,269,340;,
  3;582,340,269;,
  3;340,582,136;,
  3;136,424,340;,
  3;424,319,340;,
  3;300,160,194;,
  3;210,300,194;,
  3;300,210,241;,
  3;269,241,210;,
  3;457,269,210;,
  3;269,457,314;,
  3;314,582,269;,
  3;582,314,136;,
  3;183,210,194;,
  3;348,210,183;,
  3;210,348,172;,
  3;172,457,210;,
  3;457,172,314;,
  3;587,314,172;,
  3;314,587,270;,
  3;270,392,314;,
  3;392,136,314;,
  3;142,348,183;,
  3;348,142,172;,
  3;258,172,142;,
  3;172,258,335;,
  3;335,587,172;,
  3;587,335,270;,
  3;142,183,185;,
  3;142,185,154;,
  3;217,142,154;,
  3;142,217,189;,
  3;189,258,142;,
  3;189,317,258;,
  3;335,258,317;,
  3;168,335,317;,
  3;168,465,335;,
  3;465,270,335;,
  3;154,185,121;,
  3;108,154,121;,
  3;108,152,154;,
  3;152,217,154;,
  3;152,181,217;,
  3;181,281,217;,
  3;281,189,217;,
  3;240,189,281;,
  3;189,240,317;,
  3;289,317,240;,
  3;289,501,317;,
  3;501,168,317;,
  3;144,152,108;,
  3;144,193,152;,
  3;193,181,152;,
  3;193,246,181;,
  3;246,125,181;,
  3;125,281,181;,
  3;125,240,281;,
  3;125,289,240;,
  3;126,144,108;,
  3;126,138,144;,
  3;138,176,144;,
  3;176,141,144;,
  3;141,193,144;,
  3;141,192,193;,
  3;246,193,192;,
  3;125,246,192;,
  3;192,284,125;,
  3;284,272,125;,
  3;125,272,289;,
  3;138,126,83;,
  3;124,138,83;,
  3;124,176,138;,
  3;124,187,176;,
  3;187,141,176;,
  3;187,320,141;,
  3;320,222,141;,
  3;222,239,141;,
  3;141,239,192;,
  3;239,330,192;,
  3;192,330,284;,
  3;83,129,124;,
  3;190,124,129;,
  3;124,190,164;,
  3;124,164,184;,
  3;124,184,187;,
  3;320,187,184;,
  3;222,320,184;,
  3;143,190,129;,
  3;143,166,190;,
  3;166,164,190;,
  3;134,164,166;,
  3;325,164,134;,
  3;164,325,184;,
  3;325,250,184;,
  3;184,250,356;,
  3;356,467,184;,
  3;467,222,184;,
  3;143,165,166;,
  3;165,191,166;,
  3;134,166,191;,
  3;191,265,134;,
  3;134,265,170;,
  3;170,325,134;,
  3;325,170,250;,
  3;170,304,250;,
  3;356,250,304;,
  3;155,356,304;,
  3;356,155,251;,
  3;467,356,251;,
  3;222,467,251;,
  3;165,262,191;,
  3;262,249,191;,
  3;191,249,264;,
  3;191,264,318;,
  3;191,318,265;,
  3;318,167,265;,
  3;265,167,342;,
  3;265,342,170;,
  3;262,165,173;,
  3;130,262,173;,
  3;262,130,249;,
  3;130,266,249;,
  3;266,264,249;,
  3;180,264,266;,
  3;180,326,264;,
  3;326,318,264;,
  3;167,318,326;,
  3;130,173,175;,
  3;259,130,175;,
  3;130,259,266;,
  3;259,321,266;,
  3;180,266,321;,
  3;180,321,271;,
  3;271,538,180;,
  3;538,296,180;,
  3;296,577,180;,
  3;577,326,180;,
  3;169,259,175;,
  3;169,321,259;,
  3;169,293,321;,
  3;293,271,321;,
  3;394,271,293;,
  3;271,394,324;,
  3;324,545,271;,
  3;545,538,271;,
  3;545,296,538;,
  3;283,169,175;,
  3;316,169,283;,
  3;169,316,293;,
  3;344,293,316;,
  3;215,293,344;,
  3;215,394,293;,
  3;394,215,324;,
  3;212,283,175;,
  3;316,283,212;,
  3;145,316,212;,
  3;145,344,316;,
  3;145,333,344;,
  3;333,224,344;,
  3;224,360,344;,
  3;360,215,344;,
  3;215,360,357;,
  3;357,572,215;,
  3;572,324,215;,
  3;145,212,174;,
  3;336,145,174;,
  3;145,336,333;,
  3;336,261,333;,
  3;211,333,261;,
  3;211,224,333;,
  3;211,230,224;,
  3;230,439,224;,
  3;439,357,224;,
  3;360,224,357;,
  3;188,336,174;,
  3;188,261,336;,
  3;260,261,188;,
  3;260,211,261;,
  3;260,561,211;,
  3;561,343,211;,
  3;343,433,211;,
  3;433,230,211;,
  3;435,230,433;,
  3;230,435,376;,
  3;439,230,376;,
  3;186,260,188;,
  3;186,352,260;,
  3;352,404,260;,
  3;404,561,260;,
  3;404,343,561;,
  3;343,404,148;,
  3;148,437,343;,
  3;437,338,343;,
  3;338,433,343;,
  3;338,435,433;,
  3;338,470,435;,
  3;376,435,470;,
  3;331,352,186;,
  3;331,422,352;,
  3;422,449,352;,
  3;404,352,449;,
  3;404,449,148;,
  3;502,331,186;,
  3;331,502,227;,
  3;227,505,331;,
  3;505,567,331;,
  3;422,331,567;,
  3;422,567,322;,
  3;148,422,322;,
  3;422,148,449;,
  3;505,227,209;,
  3;322,505,209;,
  3;505,322,567;,
  3;209,407,322;,
  3;407,560,322;,
  3;576,322,560;,
  3;322,576,148;,
  3;576,464,148;,
  3;437,148,464;,
  3;294,407,209;,
  3;294,540,407;,
  3;540,274,407;,
  3;407,274,560;,
  3;576,560,274;,
  3;297,576,274;,
  3;576,297,464;,
  3;437,464,297;,
  3;338,437,297;,
  3;553,294,209;,
  3;294,553,306;,
  3;306,370,294;,
  3;370,363,294;,
  3;294,363,542;,
  3;294,542,540;,
  3;540,542,562;,
  3;274,540,562;,
  3;305,553,209;,
  3;553,305,306;,
  3;90,106,105;,
  3;106,116,105;,
  3;116,104,105;,
  3;104,113,105;,
  3;113,91,105;,
  3;91,113,115;,
  3;113,114,115;,
  3;103,115,114;,
  3;106,117,116;,
  3;112,116,117;,
  3;104,116,112;,
  3;104,112,102;,
  3;114,104,102;,
  3;104,114,113;,
  3;93,112,117;,
  3;112,93,102;,
  3;103,114,102;,
  3;92,103,102;,
  3;81,79,78;,
  3;81,80,79;,
  3;89,87,86;,
  3;89,88,87;,
  3;97,95,94;,
  3;97,96,95;,
  3;101,99,98;,
  3;101,100,99;,
  3;274,562,515;,
  3;515,562,372;,
  3;171,515,372;,
  3;515,171,383;,
  3;515,383,297;,
  3;274,515,297;,
  3;328,372,562;,
  3;328,471,372;,
  3;372,471,450;,
  3;171,372,450;,
  3;171,450,512;,
  3;171,512,488;,
  3;171,488,383;,
  3;488,551,383;,
  3;297,383,551;,
  3;297,551,338;,
  3;328,562,542;,
  3;328,542,386;,
  3;328,386,490;,
  3;328,490,471;,
  3;471,490,406;,
  3;243,471,406;,
  3;243,450,471;,
  3;243,361,450;,
  3;450,361,512;,
  3;386,542,363;,
  3;161,386,363;,
  3;161,400,386;,
  3;400,490,386;,
  3;237,490,400;,
  3;237,406,490;,
  3;237,448,406;,
  3;446,406,448;,
  3;243,406,446;,
  3;243,446,364;,
  3;243,364,361;,
  3;370,161,363;,
  3;161,370,285;,
  3;285,524,161;,
  3;524,416,161;,
  3;161,416,400;,
  3;416,425,400;,
  3;237,400,425;,
  3;237,425,408;,
  3;237,408,448;,
  3;370,543,285;,
  3;595,285,543;,
  3;285,595,223;,
  3;223,393,285;,
  3;393,282,285;,
  3;282,524,285;,
  3;370,306,543;,
  3;595,543,306;,
  3;268,393,223;,
  3;268,592,393;,
  3;592,282,393;,
  3;282,592,522;,
  3;282,522,500;,
  3;282,500,528;,
  3;282,528,524;,
  3;528,355,524;,
  3;524,355,416;,
  3;268,554,592;,
  3;522,592,554;,
  3;345,522,554;,
  3;345,395,522;,
  3;500,522,395;,
  3;162,500,395;,
  3;162,415,500;,
  3;415,528,500;,
  3;355,528,415;,
  3;268,366,554;,
  3;445,554,366;,
  3;345,554,445;,
  3;345,445,556;,
  3;345,556,539;,
  3;345,539,395;,
  3;395,539,504;,
  3;162,395,504;,
  3;466,366,268;,
  3;466,159,366;,
  3;159,445,366;,
  3;159,365,445;,
  3;365,556,445;,
  3;267,556,365;,
  3;267,594,556;,
  3;594,539,556;,
  3;286,539,594;,
  3;286,504,539;,
  3;159,466,499;,
  3;159,499,454;,
  3;159,454,365;,
  3;454,523,365;,
  3;267,365,523;,
  3;267,523,547;,
  3;267,547,414;,
  3;594,267,414;,
  3;286,594,414;,
  3;499,573,454;,
  3;315,454,573;,
  3;315,523,454;,
  3;315,580,523;,
  3;580,547,523;,
  3;347,547,580;,
  3;347,477,547;,
  3;414,547,477;,
  3;220,414,477;,
  3;286,414,220;,
  3;315,573,482;,
  3;315,482,399;,
  3;315,399,580;,
  3;493,580,399;,
  3;347,580,493;,
  3;347,493,585;,
  3;347,585,530;,
  3;347,530,477;,
  3;477,530,401;,
  3;220,477,401;,
  3;491,482,573;,
  3;245,482,491;,
  3;245,461,482;,
  3;399,482,461;,
  3;202,399,461;,
  3;202,493,399;,
  3;202,418,493;,
  3;418,585,493;,
  3;298,585,418;,
  3;298,550,585;,
  3;550,530,585;,
  3;290,530,550;,
  3;290,401,530;,
  3;245,371,461;,
  3;461,371,428;,
  3;202,461,428;,
  3;202,428,495;,
  3;418,202,495;,
  3;418,495,350;,
  3;298,418,350;,
  3;350,535,298;,
  3;535,537,298;,
  3;298,537,359;,
  3;298,359,550;,
  3;288,428,371;,
  3;288,529,428;,
  3;428,529,495;,
  3;350,495,529;,
  3;350,529,319;,
  3;319,424,350;,
  3;424,136,350;,
  3;535,350,136;,
  3;273,535,136;,
  3;535,273,537;,
  3;273,483,537;,
  3;359,537,483;,
  3;529,288,544;,
  3;529,544,319;,
  3;136,392,273;,
  3;392,270,273;,
  3;520,273,270;,
  3;273,520,483;,
  3;483,520,398;,
  3;163,483,398;,
  3;163,359,483;,
  3;163,506,359;,
  3;506,550,359;,
  3;290,550,506;,
  3;329,520,270;,
  3;329,398,520;,
  3;329,569,398;,
  3;398,569,397;,
  3;163,398,397;,
  3;163,397,373;,
  3;163,373,506;,
  3;373,558,506;,
  3;290,506,558;,
  3;290,558,596;,
  3;290,596,401;,
  3;270,465,329;,
  3;465,168,329;,
  3;566,329,168;,
  3;569,329,566;,
  3;332,569,566;,
  3;332,397,569;,
  3;332,583,397;,
  3;397,583,373;,
  3;307,373,583;,
  3;307,558,373;,
  3;307,531,558;,
  3;596,558,531;,
  3;323,566,168;,
  3;332,566,323;,
  3;367,332,323;,
  3;332,367,541;,
  3;332,541,583;,
  3;583,541,552;,
  3;307,583,552;,
  3;307,552,460;,
  3;307,460,531;,
  3;168,501,323;,
  3;501,289,323;,
  3;526,323,289;,
  3;323,526,182;,
  3;182,367,323;,
  3;182,390,367;,
  3;390,541,367;,
  3;295,541,390;,
  3;295,552,541;,
  3;295,484,552;,
  3;460,552,484;,
  3;272,526,289;,
  3;526,272,182;,
  3;468,182,272;,
  3;182,468,309;,
  3;309,555,182;,
  3;555,390,182;,
  3;555,295,390;,
  3;525,295,555;,
  3;295,525,484;,
  3;484,525,413;,
  3;156,484,413;,
  3;156,460,484;,
  3;284,468,272;,
  3;468,284,309;,
  3;584,309,284;,
  3;309,584,221;,
  3;221,381,309;,
  3;381,253,309;,
  3;253,555,309;,
  3;253,525,555;,
  3;253,413,525;,
  3;253,532,413;,
  3;413,532,453;,
  3;156,413,453;,
  3;330,584,284;,
  3;584,330,221;,
  3;239,221,330;,
  3;238,221,239;,
  3;221,238,354;,
  3;354,381,221;,
  3;354,564,381;,
  3;564,253,381;,
  3;253,564,532;,
  3;564,578,532;,
  3;308,532,578;,
  3;308,453,532;,
  3;222,238,239;,
  3;222,472,238;,
  3;472,353,238;,
  3;238,353,354;,
  3;353,509,354;,
  3;509,517,354;,
  3;354,517,578;,
  3;354,578,564;,
  3;472,222,251;,
  3;353,472,251;,
  3;251,534,353;,
  3;534,311,353;,
  3;509,353,311;,
  3;207,509,311;,
  3;509,207,517;,
  3;207,434,517;,
  3;434,578,517;,
  3;308,578,434;,
  3;308,434,442;,
  3;308,442,565;,
  3;308,565,453;,
  3;155,534,251;,
  3;155,514,534;,
  3;514,311,534;,
  3;311,514,447;,
  3;311,447,341;,
  3;341,486,311;,
  3;311,486,207;,
  3;486,492,207;,
  3;207,492,511;,
  3;207,511,434;,
  3;514,155,447;,
  3;447,155,313;,
  3;341,447,313;,
  3;313,496,341;,
  3;496,419,341;,
  3;341,419,475;,
  3;341,475,438;,
  3;341,438,486;,
  3;438,228,486;,
  3;486,228,492;,
  3;575,313,155;,
  3;313,575,275;,
  3;275,405,313;,
  3;405,444,313;,
  3;313,444,496;,
  3;489,496,444;,
  3;232,496,489;,
  3;496,232,419;,
  3;304,575,155;,
  3;575,304,275;,
  3;170,275,304;,
  3;170,342,275;,
  3;342,521,275;,
  3;521,593,275;,
  3;275,593,405;,
  3;405,593,410;,
  3;208,405,410;,
  3;405,208,444;,
  3;208,489,444;,
  3;208,479,489;,
  3;479,374,489;,
  3;232,489,374;,
  3;521,342,167;,
  3;279,521,167;,
  3;521,279,593;,
  3;279,410,593;,
  3;279,533,410;,
  3;410,533,481;,
  3;208,410,481;,
  3;208,481,479;,
  3;481,451,479;,
  3;244,479,451;,
  3;244,374,479;,
  3;167,362,279;,
  3;362,548,279;,
  3;279,548,533;,
  3;533,548,581;,
  3;334,533,581;,
  3;334,481,533;,
  3;334,451,481;,
  3;334,570,451;,
  3;452,451,570;,
  3;244,451,452;,
  3;362,167,326;,
  3;302,362,326;,
  3;362,302,548;,
  3;302,581,548;,
  3;302,456,581;,
  3;429,581,456;,
  3;334,581,429;,
  3;334,429,570;,
  3;432,570,429;,
  3;337,570,432;,
  3;337,452,570;,
  3;326,577,302;,
  3;577,557,302;,
  3;302,557,456;,
  3;456,557,480;,
  3;153,456,480;,
  3;153,429,456;,
  3;153,432,429;,
  3;153,494,432;,
  3;494,568,432;,
  3;337,432,568;,
  3;577,296,557;,
  3;296,480,557;,
  3;296,545,480;,
  3;480,545,487;,
  3;153,480,487;,
  3;494,153,487;,
  3;494,487,324;,
  3;327,494,324;,
  3;327,568,494;,
  3;327,474,568;,
  3;474,440,568;,
  3;337,568,440;,
  3;324,487,545;,
  3;324,572,327;,
  3;572,574,327;,
  3;441,327,574;,
  3;327,441,474;,
  3;384,474,441;,
  3;242,474,384;,
  3;242,440,474;,
  3;242,469,440;,
  3;385,440,469;,
  3;337,440,385;,
  3;337,385,452;,
  3;572,357,574;,
  3;441,574,357;,
  3;213,441,357;,
  3;213,384,441;,
  3;213,411,384;,
  3;411,380,384;,
  3;242,384,380;,
  3;242,380,389;,
  3;242,389,469;,
  3;469,389,421;,
  3;201,469,421;,
  3;201,385,469;,
  3;357,439,213;,
  3;439,376,213;,
  3;213,376,470;,
  3;213,470,411;,
  3;470,536,411;,
  3;291,411,536;,
  3;291,380,411;,
  3;291,591,380;,
  3;380,591,389;,
  3;277,389,591;,
  3;277,421,389;,
  3;277,589,421;,
  3;421,589,420;,
  3;201,421,420;,
  3;338,536,470;,
  3;551,536,338;,
  3;551,291,536;,
  3;291,551,488;,
  3;291,488,591;,
  3;512,591,488;,
  3;277,591,512;,
  3;277,512,361;,
  3;277,361,589;,
  3;589,361,364;,
  3;280,589,364;,
  3;280,420,589;,
  3;280,379,420;,
  3;420,379,478;,
  3;201,420,478;,
  3;201,478,463;,
  3;201,463,385;,
  3;463,452,385;,
  3;280,364,462;,
  3;280,462,588;,
  3;280,588,379;,
  3;375,379,588;,
  3;248,379,375;,
  3;248,478,379;,
  3;248,412,478;,
  3;478,412,463;,
  3;244,463,412;,
  3;244,452,463;,
  3;462,364,446;,
  3;109,462,446;,
  3;109,458,462;,
  3;458,588,462;,
  3;278,588,458;,
  3;278,375,588;,
  3;278,430,375;,
  3;485,375,430;,
  3;248,375,485;,
  3;248,485,369;,
  3;248,369,412;,
  3;109,446,448;,
  3;109,448,423;,
  3;109,423,476;,
  3;109,476,458;,
  3;476,590,458;,
  3;278,458,590;,
  3;278,590,402;,
  3;278,402,430;,
  3;430,402,513;,
  3;203,430,513;,
  3;203,485,430;,
  3;448,408,423;,
  3;236,423,408;,
  3;236,382,423;,
  3;423,382,476;,
  3;287,476,382;,
  3;287,590,476;,
  3;287,396,590;,
  3;396,402,590;,
  3;229,402,396;,
  3;229,513,402;,
  3;236,408,427;,
  3;236,427,409;,
  3;236,409,459;,
  3;236,459,382;,
  3;459,559,382;,
  3;287,382,559;,
  3;287,559,426;,
  3;287,426,396;,
  3;519,396,426;,
  3;229,396,519;,
  3;425,427,408;,
  3;355,427,425;,
  3;355,415,427;,
  3;409,427,415;,
  3;162,409,415;,
  3;162,378,409;,
  3;378,459,409;,
  3;303,459,378;,
  3;303,559,459;,
  3;303,431,559;,
  3;426,559,431;,
  3;355,425,416;,
  3;162,504,378;,
  3;504,546,378;,
  3;303,378,546;,
  3;303,546,586;,
  3;303,586,431;,
  3;431,586,503;,
  3;205,431,503;,
  3;205,426,431;,
  3;205,519,426;,
  3;286,546,504;,
  3;286,527,546;,
  3;527,586,546;,
  3;349,586,527;,
  3;349,503,586;,
  3;349,579,503;,
  3;503,579,436;,
  3;205,503,436;,
  3;205,436,497;,
  3;205,497,519;,
  3;497,388,519;,
  3;229,519,388;,
  3;220,527,286;,
  3;220,473,527;,
  3;473,349,527;,
  3;349,473,563;,
  3;579,349,563;,
  3;579,563,256;,
  3;310,579,256;,
  3;310,436,579;,
  3;310,443,436;,
  3;436,443,497;,
  3;225,497,443;,
  3;225,388,497;,
  3;220,403,473;,
  3;403,563,473;,
  3;256,563,403;,
  3;256,403,596;,
  3;256,596,531;,
  3;256,531,368;,
  3;256,368,310;,
  3;368,455,310;,
  3;310,455,565;,
  3;310,565,443;,
  3;220,401,403;,
  3;401,596,403;,
  3;442,443,565;,
  3;225,443,442;,
  3;225,442,511;,
  3;225,511,387;,
  3;225,387,388;,
  3;387,391,388;,
  3;229,388,391;,
  3;229,391,513;,
  3;511,442,434;,
  3;492,387,511;,
  3;228,387,492;,
  3;228,391,387;,
  3;228,508,391;,
  3;513,391,508;,
  3;203,513,508;,
  3;203,508,475;,
  3;203,475,518;,
  3;203,518,485;,
  3;518,369,485;,
  3;228,438,508;,
  3;508,438,475;,
  3;475,419,518;,
  3;232,518,419;,
  3;232,369,518;,
  3;232,374,369;,
  3;374,412,369;,
  3;244,412,374;,
  3;453,565,455;,
  3;156,453,455;,
  3;368,156,455;,
  3;156,368,460;,
  3;368,531,460;;
 }

 MeshTextureCoords {
  598;
  0.000000;0.000000;,
  0.000000;0.000000;,
  0.000000;0.000000;,
  0.000000;0.000000;,
  0.000000;0.000000;,
  0.000000;0.000000;,
  0.000000;0.000000;,
  0.000000;0.000000;,
  0.000000;0.000000;,
  0.000000;0.000000;,
  0.000000;0.000000;,
  0.000000;0.000000;,
  0.000000;0.000000;,
  0.000000;0.000000;,
  0.000000;0.000000;,
  0.000000;0.000000;,
  0.000000;0.000000;,
  0.000000;0.000000;,
  0.000000;0.000000;,
  0.000000;0.000000;,
  0.000000;0.000000;,
  0.000000;0.000000;,
  0.000000;0.000000;,
  0.000000;0.000000;,
  0.000000;0.000000;,
  0.000000;0.000000;,
  0.000000;0.000000;,
  0.000000;0.000000;,
  0.000000;0.000000;,
  0.000000;0.000000;,
  0.000000;0.000000;,
  0.000000;0.000000;,
  0.000000;0.000000;,
  0.000000;0.000000;,
  0.000000;0.000000;,
  0.000000;0.000000;,
  0.000000;0.000000;,
  0.000000;0.000000;,
  0.000000;0.000000;,
  0.000000;0.000000;,
  0.000000;0.000000;,
  0.000000;0.000000;,
  0.000000;0.000000;,
  0.000000;0.000000;,
  0.000000;0.000000;,
  0.000000;0.000000;,
  0.000000;0.000000;,
  0.000000;0.000000;,
  0.000000;0.000000;,
  0.000000;0.000000;,
  0.000000;0.000000;,
  0.000000;0.000000;,
  0.000000;0.000000;,
  0.000000;0.000000;,
  0.000000;0.000000;,
  0.000000;0.000000;,
  0.000000;0.000000;,
  0.000000;0.000000;,
  0.000000;0.000000;,
  0.000000;0.000000;,
  0.000000;0.000000;,
  0.000000;0.000000;,
  0.000000;0.000000;,
  0.000000;0.000000;,
  0.000000;0.000000;,
  0.000000;0.000000;,
  0.000000;0.000000;,
  0.000000;0.000000;,
  0.000000;0.000000;,
  0.000000;0.000000;,
  0.000000;0.000000;,
  0.000000;0.000000;,
  0.000000;0.000000;,
  0.000000;0.000000;,
  0.000000;0.000000;,
  0.000000;0.000000;,
  0.000000;0.000000;,
  0.000000;0.000000;,
  0.000000;0.000000;,
  0.000000;0.000000;,
  0.000000;0.000000;,
  0.000000;0.000000;,
  0.000000;0.000000;,
  0.000000;0.000000;,
  0.000000;0.000000;,
  0.000000;0.000000;,
  0.000000;0.000000;,
  0.000000;0.000000;,
  0.000000;0.000000;,
  0.000000;0.000000;,
  0.000000;0.000000;,
  0.000000;0.000000;,
  0.000000;0.000000;,
  0.000000;0.000000;,
  0.000000;0.000000;,
  0.000000;0.000000;,
  0.000000;0.000000;,
  0.000000;0.000000;,
  0.000000;0.000000;,
  0.000000;0.000000;,
  0.000000;0.000000;,
  0.000000;0.000000;,
  0.000000;0.000000;,
  0.000000;0.000000;,
  0.000000;0.000000;,
  0.000000;0.000000;,
  0.000000;0.000000;,
  0.000000;0.000000;,
  0.000000;0.000000;,
  0.000000;0.000000;,
  0.000000;0.000000;,
  0.000000;0.000000;,
  0.000000;0.000000;,
  0.000000;0.000000;,
  0.000000;0.000000;,
  0.000000;0.000000;,
  0.000000;0.000000;,
  0.000000;0.000000;,
  0.000000;0.000000;,
  0.000000;0.000000;,
  0.000000;0.000000;,
  0.000000;0.000000;,
  0.000000;0.000000;,
  0.000000;0.000000;,
  0.000000;0.000000;,
  0.000000;0.000000;,
  0.000000;0.000000;,
  0.000000;0.000000;,
  0.000000;0.000000;,
  0.000000;0.000000;,
  0.000000;0.000000;,
  0.000000;0.000000;,
  0.000000;0.000000;,
  0.000000;0.000000;,
  0.000000;0.000000;,
  0.000000;0.000000;,
  0.000000;0.000000;,
  0.000000;0.000000;,
  0.000000;0.000000;,
  0.000000;0.000000;,
  0.000000;0.000000;,
  0.000000;0.000000;,
  0.000000;0.000000;,
  0.000000;0.000000;,
  0.000000;0.000000;,
  0.000000;0.000000;,
  0.000000;0.000000;,
  0.000000;0.000000;,
  0.000000;0.000000;,
  0.000000;0.000000;,
  0.000000;0.000000;,
  0.000000;0.000000;,
  0.000000;0.000000;,
  0.000000;0.000000;,
  0.000000;0.000000;,
  0.000000;0.000000;,
  0.000000;0.000000;,
  0.000000;0.000000;,
  0.000000;0.000000;,
  0.000000;0.000000;,
  0.000000;0.000000;,
  0.000000;0.000000;,
  0.000000;0.000000;,
  0.000000;0.000000;,
  0.000000;0.000000;,
  0.000000;0.000000;,
  0.000000;0.000000;,
  0.000000;0.000000;,
  0.000000;0.000000;,
  0.000000;0.000000;,
  0.000000;0.000000;,
  0.000000;0.000000;,
  0.000000;0.000000;,
  0.000000;0.000000;,
  0.000000;0.000000;,
  0.000000;0.000000;,
  0.000000;0.000000;,
  0.000000;0.000000;,
  0.000000;0.000000;,
  0.000000;0.000000;,
  0.000000;0.000000;,
  0.000000;0.000000;,
  0.000000;0.000000;,
  0.000000;0.000000;,
  0.000000;0.000000;,
  0.000000;0.000000;,
  0.000000;0.000000;,
  0.000000;0.000000;,
  0.000000;0.000000;,
  0.000000;0.000000;,
  0.000000;0.000000;,
  0.000000;0.000000;,
  0.000000;0.000000;,
  0.000000;0.000000;,
  0.000000;0.000000;,
  0.000000;0.000000;,
  0.000000;0.000000;,
  0.000000;0.000000;,
  0.000000;0.000000;,
  0.000000;0.000000;,
  0.000000;0.000000;,
  0.000000;0.000000;,
  0.000000;0.000000;,
  0.000000;0.000000;,
  0.000000;0.000000;,
  0.000000;0.000000;,
  0.000000;0.000000;,
  0.000000;0.000000;,
  0.000000;0.000000;,
  0.000000;0.000000;,
  0.000000;0.000000;,
  0.000000;0.000000;,
  0.000000;0.000000;,
  0.000000;0.000000;,
  0.000000;0.000000;,
  0.000000;0.000000;,
  0.000000;0.000000;,
  0.000000;0.000000;,
  0.000000;0.000000;,
  0.000000;0.000000;,
  0.000000;0.000000;,
  0.000000;0.000000;,
  0.000000;0.000000;,
  0.000000;0.000000;,
  0.000000;0.000000;,
  0.000000;0.000000;,
  0.000000;0.000000;,
  0.000000;0.000000;,
  0.000000;0.000000;,
  0.000000;0.000000;,
  0.000000;0.000000;,
  0.000000;0.000000;,
  0.000000;0.000000;,
  0.000000;0.000000;,
  0.000000;0.000000;,
  0.000000;0.000000;,
  0.000000;0.000000;,
  0.000000;0.000000;,
  0.000000;0.000000;,
  0.000000;0.000000;,
  0.000000;0.000000;,
  0.000000;0.000000;,
  0.000000;0.000000;,
  0.000000;0.000000;,
  0.000000;0.000000;,
  0.000000;0.000000;,
  0.000000;0.000000;,
  0.000000;0.000000;,
  0.000000;0.000000;,
  0.000000;0.000000;,
  0.000000;0.000000;,
  0.000000;0.000000;,
  0.000000;0.000000;,
  0.000000;0.000000;,
  0.000000;0.000000;,
  0.000000;0.000000;,
  0.000000;0.000000;,
  0.000000;0.000000;,
  0.000000;0.000000;,
  0.000000;0.000000;,
  0.000000;0.000000;,
  0.000000;0.000000;,
  0.000000;0.000000;,
  0.000000;0.000000;,
  0.000000;0.000000;,
  0.000000;0.000000;,
  0.000000;0.000000;,
  0.000000;0.000000;,
  0.000000;0.000000;,
  0.000000;0.000000;,
  0.000000;0.000000;,
  0.000000;0.000000;,
  0.000000;0.000000;,
  0.000000;0.000000;,
  0.000000;0.000000;,
  0.000000;0.000000;,
  0.000000;0.000000;,
  0.000000;0.000000;,
  0.000000;0.000000;,
  0.000000;0.000000;,
  0.000000;0.000000;,
  0.000000;0.000000;,
  0.000000;0.000000;,
  0.000000;0.000000;,
  0.000000;0.000000;,
  0.000000;0.000000;,
  0.000000;0.000000;,
  0.000000;0.000000;,
  0.000000;0.000000;,
  0.000000;0.000000;,
  0.000000;0.000000;,
  0.000000;0.000000;,
  0.000000;0.000000;,
  0.000000;0.000000;,
  0.000000;0.000000;,
  0.000000;0.000000;,
  0.000000;0.000000;,
  0.000000;0.000000;,
  0.000000;0.000000;,
  0.000000;0.000000;,
  0.000000;0.000000;,
  0.000000;0.000000;,
  0.000000;0.000000;,
  0.000000;0.000000;,
  0.000000;0.000000;,
  0.000000;0.000000;,
  0.000000;0.000000;,
  0.000000;0.000000;,
  0.000000;0.000000;,
  0.000000;0.000000;,
  0.000000;0.000000;,
  0.000000;0.000000;,
  0.000000;0.000000;,
  0.000000;0.000000;,
  0.000000;0.000000;,
  0.000000;0.000000;,
  0.000000;0.000000;,
  0.000000;0.000000;,
  0.000000;0.000000;,
  0.000000;0.000000;,
  0.000000;0.000000;,
  0.000000;0.000000;,
  0.000000;0.000000;,
  0.000000;0.000000;,
  0.000000;0.000000;,
  0.000000;0.000000;,
  0.000000;0.000000;,
  0.000000;0.000000;,
  0.000000;0.000000;,
  0.000000;0.000000;,
  0.000000;0.000000;,
  0.000000;0.000000;,
  0.000000;0.000000;,
  0.000000;0.000000;,
  0.000000;0.000000;,
  0.000000;0.000000;,
  0.000000;0.000000;,
  0.000000;0.000000;,
  0.000000;0.000000;,
  0.000000;0.000000;,
  0.000000;0.000000;,
  0.000000;0.000000;,
  0.000000;0.000000;,
  0.000000;0.000000;,
  0.000000;0.000000;,
  0.000000;0.000000;,
  0.000000;0.000000;,
  0.000000;0.000000;,
  0.000000;0.000000;,
  0.000000;0.000000;,
  0.000000;0.000000;,
  0.000000;0.000000;,
  0.000000;0.000000;,
  0.000000;0.000000;,
  0.000000;0.000000;,
  0.000000;0.000000;,
  0.000000;0.000000;,
  0.000000;0.000000;,
  0.000000;0.000000;,
  0.000000;0.000000;,
  0.000000;0.000000;,
  0.000000;0.000000;,
  0.000000;0.000000;,
  0.000000;0.000000;,
  0.000000;0.000000;,
  0.000000;0.000000;,
  0.000000;0.000000;,
  0.000000;0.000000;,
  0.000000;0.000000;,
  0.000000;0.000000;,
  0.000000;0.000000;,
  0.000000;0.000000;,
  0.000000;0.000000;,
  0.000000;0.000000;,
  0.000000;0.000000;,
  0.000000;0.000000;,
  0.000000;0.000000;,
  0.000000;0.000000;,
  0.000000;0.000000;,
  0.000000;0.000000;,
  0.000000;0.000000;,
  0.000000;0.000000;,
  0.000000;0.000000;,
  0.000000;0.000000;,
  0.000000;0.000000;,
  0.000000;0.000000;,
  0.000000;0.000000;,
  0.000000;0.000000;,
  0.000000;0.000000;,
  0.000000;0.000000;,
  0.000000;0.000000;,
  0.000000;0.000000;,
  0.000000;0.000000;,
  0.000000;0.000000;,
  0.000000;0.000000;,
  0.000000;0.000000;,
  0.000000;0.000000;,
  0.000000;0.000000;,
  0.000000;0.000000;,
  0.000000;0.000000;,
  0.000000;0.000000;,
  0.000000;0.000000;,
  0.000000;0.000000;,
  0.000000;0.000000;,
  0.000000;0.000000;,
  0.000000;0.000000;,
  0.000000;0.000000;,
  0.000000;0.000000;,
  0.000000;0.000000;,
  0.000000;0.000000;,
  0.000000;0.000000;,
  0.000000;0.000000;,
  0.000000;0.000000;,
  0.000000;0.000000;,
  0.000000;0.000000;,
  0.000000;0.000000;,
  0.000000;0.000000;,
  0.000000;0.000000;,
  0.000000;0.000000;,
  0.000000;0.000000;,
  0.000000;0.000000;,
  0.000000;0.000000;,
  0.000000;0.000000;,
  0.000000;0.000000;,
  0.000000;0.000000;,
  0.000000;0.000000;,
  0.000000;0.000000;,
  0.000000;0.000000;,
  0.000000;0.000000;,
  0.000000;0.000000;,
  0.000000;0.000000;,
  0.000000;0.000000;,
  0.000000;0.000000;,
  0.000000;0.000000;,
  0.000000;0.000000;,
  0.000000;0.000000;,
  0.000000;0.000000;,
  0.000000;0.000000;,
  0.000000;0.000000;,
  0.000000;0.000000;,
  0.000000;0.000000;,
  0.000000;0.000000;,
  0.000000;0.000000;,
  0.000000;0.000000;,
  0.000000;0.000000;,
  0.000000;0.000000;,
  0.000000;0.000000;,
  0.000000;0.000000;,
  0.000000;0.000000;,
  0.000000;0.000000;,
  0.000000;0.000000;,
  0.000000;0.000000;,
  0.000000;0.000000;,
  0.000000;0.000000;,
  0.000000;0.000000;,
  0.000000;0.000000;,
  0.000000;0.000000;,
  0.000000;0.000000;,
  0.000000;0.000000;,
  0.000000;0.000000;,
  0.000000;0.000000;,
  0.000000;0.000000;,
  0.000000;0.000000;,
  0.000000;0.000000;,
  0.000000;0.000000;,
  0.000000;0.000000;,
  0.000000;0.000000;,
  0.000000;0.000000;,
  0.000000;0.000000;,
  0.000000;0.000000;,
  0.000000;0.000000;,
  0.000000;0.000000;,
  0.000000;0.000000;,
  0.000000;0.000000;,
  0.000000;0.000000;,
  0.000000;0.000000;,
  0.000000;0.000000;,
  0.000000;0.000000;,
  0.000000;0.000000;,
  0.000000;0.000000;,
  0.000000;0.000000;,
  0.000000;0.000000;,
  0.000000;0.000000;,
  0.000000;0.000000;,
  0.000000;0.000000;,
  0.000000;0.000000;,
  0.000000;0.000000;,
  0.000000;0.000000;,
  0.000000;0.000000;,
  0.000000;0.000000;,
  0.000000;0.000000;,
  0.000000;0.000000;,
  0.000000;0.000000;,
  0.000000;0.000000;,
  0.000000;0.000000;,
  0.000000;0.000000;,
  0.000000;0.000000;,
  0.000000;0.000000;,
  0.000000;0.000000;,
  0.000000;0.000000;,
  0.000000;0.000000;,
  0.000000;0.000000;,
  0.000000;0.000000;,
  0.000000;0.000000;,
  0.000000;0.000000;,
  0.000000;0.000000;,
  0.000000;0.000000;,
  0.000000;0.000000;,
  0.000000;0.000000;,
  0.000000;0.000000;,
  0.000000;0.000000;,
  0.000000;0.000000;,
  0.000000;0.000000;,
  0.000000;0.000000;,
  0.000000;0.000000;,
  0.000000;0.000000;,
  0.000000;0.000000;,
  0.000000;0.000000;,
  0.000000;0.000000;,
  0.000000;0.000000;,
  0.000000;0.000000;,
  0.000000;0.000000;,
  0.000000;0.000000;,
  0.000000;0.000000;,
  0.000000;0.000000;,
  0.000000;0.000000;,
  0.000000;0.000000;,
  0.000000;0.000000;,
  0.000000;0.000000;,
  0.000000;0.000000;,
  0.000000;0.000000;,
  0.000000;0.000000;,
  0.000000;0.000000;,
  0.000000;0.000000;,
  0.000000;0.000000;,
  0.000000;0.000000;,
  0.000000;0.000000;,
  0.000000;0.000000;,
  0.000000;0.000000;,
  0.000000;0.000000;,
  0.000000;0.000000;,
  0.000000;0.000000;,
  0.000000;0.000000;,
  0.000000;0.000000;,
  0.000000;0.000000;,
  0.000000;0.000000;,
  0.000000;0.000000;,
  0.000000;0.000000;,
  0.000000;0.000000;,
  0.000000;0.000000;,
  0.000000;0.000000;,
  0.000000;0.000000;,
  0.000000;0.000000;,
  0.000000;0.000000;,
  0.000000;0.000000;,
  0.000000;0.000000;,
  0.000000;0.000000;,
  0.000000;0.000000;,
  0.000000;0.000000;,
  0.000000;0.000000;,
  0.000000;0.000000;,
  0.000000;0.000000;,
  0.000000;0.000000;,
  0.000000;0.000000;,
  0.000000;0.000000;,
  0.000000;0.000000;,
  0.000000;0.000000;,
  0.000000;0.000000;,
  0.000000;0.000000;,
  0.000000;0.000000;,
  0.000000;0.000000;,
  0.000000;0.000000;,
  0.000000;0.000000;,
  0.000000;0.000000;,
  0.000000;0.000000;,
  0.000000;0.000000;,
  0.000000;0.000000;,
  0.000000;0.000000;,
  0.000000;0.000000;,
  0.000000;0.000000;,
  0.000000;0.000000;,
  0.000000;0.000000;,
  0.000000;0.000000;,
  0.000000;0.000000;,
  0.000000;0.000000;,
  0.000000;0.000000;,
  0.000000;0.000000;,
  0.000000;0.000000;,
  0.000000;0.000000;,
  0.000000;0.000000;,
  0.000000;0.000000;,
  0.000000;0.000000;,
  0.000000;0.000000;,
  0.000000;0.000000;,
  0.000000;0.000000;,
  0.000000;0.000000;,
  0.000000;0.000000;,
  0.000000;0.000000;;
 }

 MeshMaterialList {
  2;
  1073;
  0,
  0,
  0,
  0,
  0,
  0,
  0,
  0,
  0,
  0,
  0,
  0,
  0,
  0,
  0,
  0,
  0,
  0,
  0,
  0,
  0,
  0,
  0,
  0,
  0,
  0,
  0,
  0,
  0,
  0,
  0,
  0,
  0,
  0,
  0,
  0,
  0,
  0,
  0,
  0,
  0,
  0,
  0,
  0,
  0,
  0,
  0,
  0,
  0,
  0,
  0,
  0,
  0,
  0,
  0,
  0,
  0,
  0,
  0,
  0,
  0,
  0,
  0,
  0,
  0,
  0,
  0,
  0,
  0,
  0,
  0,
  0,
  0,
  0,
  0,
  0,
  0,
  0,
  0,
  0,
  0,
  0,
  0,
  0,
  0,
  0,
  0,
  1,
  1,
  1,
  1,
  1,
  1,
  1,
  1,
  1,
  1,
  1,
  1,
  1,
  1,
  1,
  1,
  1,
  1,
  1,
  1,
  1,
  1,
  1,
  1,
  1,
  1,
  1,
  1,
  1,
  1,
  1,
  1,
  1,
  1,
  1,
  1,
  1,
  1,
  1,
  1,
  1,
  1,
  1,
  1,
  1,
  1,
  1,
  1,
  1,
  1,
  1,
  1,
  1,
  1,
  1,
  1,
  1,
  1,
  1,
  1,
  1,
  1,
  1,
  1,
  1,
  1,
  1,
  1,
  1,
  1,
  1,
  1,
  1,
  1,
  1,
  1,
  1,
  1,
  1,
  1,
  1,
  1,
  1,
  1,
  1,
  1,
  1,
  1,
  1,
  1,
  1,
  1,
  1,
  1,
  1,
  1,
  1,
  1,
  1,
  1,
  1,
  1,
  1,
  1,
  1,
  1,
  1,
  1,
  1,
  1,
  1,
  1,
  1,
  1,
  1,
  1,
  1,
  1,
  1,
  1,
  1,
  1,
  1,
  1,
  1,
  1,
  1,
  1,
  1,
  1,
  1,
  1,
  1,
  1,
  1,
  1,
  1,
  1,
  1,
  1,
  1,
  1,
  1,
  1,
  1,
  1,
  1,
  1,
  1,
  1,
  1,
  1,
  1,
  1,
  1,
  1,
  1,
  1,
  1,
  1,
  1,
  1,
  1,
  1,
  1,
  1,
  1,
  1,
  1,
  1,
  1,
  1,
  1,
  1,
  1,
  1,
  1,
  1,
  1,
  1,
  1,
  1,
  1,
  1,
  1,
  1,
  1,
  1,
  1,
  1,
  1,
  1,
  1,
  1,
  1,
  1,
  1,
  1,
  1,
  1,
  1,
  1,
  1,
  1,
  1,
  1,
  1,
  1,
  1,
  1,
  1,
  1,
  1,
  1,
  1,
  1,
  1,
  1,
  1,
  1,
  1,
  1,
  1,
  1,
  1,
  1,
  1,
  1,
  1,
  1,
  1,
  1,
  1,
  1,
  1,
  1,
  1,
  1,
  1,
  1,
  1,
  1,
  1,
  1,
  1,
  1,
  1,
  1,
  1,
  1,
  1,
  1,
  1,
  1,
  1,
  1,
  1,
  1,
  1,
  1,
  1,
  1,
  1,
  1,
  1,
  1,
  1,
  1,
  1,
  1,
  1,
  1,
  1,
  1,
  1,
  1,
  1,
  1,
  1,
  1,
  1,
  1,
  1,
  1,
  1,
  1,
  1,
  1,
  1,
  1,
  1,
  1,
  1,
  1,
  1,
  1,
  1,
  1,
  1,
  1,
  1,
  1,
  1,
  1,
  1,
  1,
  1,
  1,
  1,
  1,
  1,
  1,
  1,
  1,
  1,
  1,
  1,
  1,
  1,
  1,
  1,
  1,
  1,
  1,
  1,
  1,
  1,
  1,
  1,
  1,
  1,
  1,
  1,
  1,
  1,
  1,
  1,
  1,
  1,
  1,
  1,
  1,
  1,
  1,
  1,
  1,
  1,
  1,
  1,
  1,
  1,
  1,
  1,
  1,
  1,
  1,
  1,
  1,
  1,
  1,
  1,
  1,
  1,
  1,
  1,
  1,
  1,
  1,
  1,
  1,
  1,
  1,
  1,
  1,
  1,
  1,
  1,
  1,
  1,
  1,
  1,
  1,
  1,
  1,
  1,
  1,
  1,
  1,
  1,
  1,
  1,
  1,
  1,
  1,
  1,
  1,
  1,
  1,
  1,
  1,
  1,
  1,
  1,
  1,
  1,
  1,
  1,
  1,
  1,
  1,
  1,
  1,
  1,
  1,
  1,
  1,
  1,
  1,
  1,
  1,
  1,
  1,
  1,
  1,
  1,
  1,
  1,
  1,
  1,
  1,
  1,
  1,
  1,
  1,
  1,
  1,
  1,
  1,
  1,
  1,
  1,
  1,
  1,
  1,
  1,
  1,
  1,
  1,
  1,
  1,
  1,
  1,
  1,
  1,
  1,
  1,
  1,
  1,
  1,
  1,
  1,
  1,
  1,
  1,
  1,
  1,
  1,
  1,
  1,
  1,
  1,
  1,
  1,
  1,
  1,
  1,
  1,
  1,
  1,
  1,
  1,
  1,
  1,
  1,
  1,
  1,
  1,
  1,
  1,
  1,
  1,
  1,
  1,
  1,
  1,
  1,
  1,
  1,
  1,
  1,
  1,
  1,
  1,
  1,
  1,
  1,
  1,
  1,
  1,
  1,
  1,
  1,
  1,
  1,
  1,
  1,
  1,
  1,
  1,
  1,
  1,
  1,
  1,
  1,
  1,
  1,
  1,
  1,
  1,
  1,
  1,
  1,
  1,
  1,
  1,
  1,
  1,
  1,
  1,
  1,
  1,
  1,
  1,
  1,
  1,
  1,
  1,
  1,
  1,
  1,
  1,
  1,
  1,
  1,
  1,
  1,
  1,
  1,
  1,
  1,
  1,
  1,
  1,
  1,
  1,
  1,
  1,
  1,
  1,
  1,
  1,
  1,
  1,
  1,
  1,
  1,
  1,
  1,
  1,
  1,
  1,
  1,
  1,
  1,
  1,
  1,
  1,
  1,
  1,
  1,
  1,
  1,
  1,
  1,
  1,
  1,
  1,
  1,
  1,
  1,
  1,
  1,
  1,
  1,
  1,
  1,
  1,
  1,
  1,
  1,
  1,
  1,
  1,
  1,
  1,
  1,
  1,
  1,
  1,
  1,
  1,
  1,
  1,
  1,
  1,
  1,
  1,
  1,
  1,
  1,
  1,
  1,
  1,
  1,
  1,
  1,
  1,
  1,
  1,
  1,
  1,
  1,
  1,
  1,
  1,
  1,
  1,
  1,
  1,
  1,
  1,
  1,
  1,
  1,
  1,
  1,
  1,
  1,
  1,
  1,
  1,
  1,
  1,
  1,
  1,
  1,
  1,
  1,
  1,
  1,
  1,
  1,
  1,
  1,
  1,
  1,
  1,
  1,
  1,
  1,
  1,
  1,
  1,
  1,
  1,
  1,
  1,
  1,
  1,
  1,
  1,
  1,
  1,
  1,
  1,
  1,
  1,
  1,
  1,
  1,
  1,
  1,
  1,
  1,
  1,
  1,
  1,
  1,
  1,
  1,
  1,
  1,
  1,
  1,
  1,
  1,
  1,
  1,
  1,
  1,
  1,
  1,
  1,
  1,
  1,
  1,
  1,
  1,
  1,
  1,
  1,
  1,
  1,
  1,
  1,
  1,
  1,
  1,
  1,
  1,
  1,
  1,
  1,
  1,
  1,
  1,
  1,
  1,
  1,
  1,
  1,
  1,
  1,
  1,
  1,
  1,
  1,
  1,
  1,
  1,
  1,
  1,
  1,
  1,
  1,
  1,
  1,
  1,
  1,
  1,
  1,
  1,
  1,
  1,
  1,
  1,
  1,
  1,
  1,
  1,
  1,
  1,
  1,
  1,
  1,
  1,
  1,
  1,
  1,
  1,
  1,
  1,
  1,
  1,
  1,
  1,
  1,
  1,
  1,
  1,
  1,
  1,
  1,
  1,
  1,
  1,
  1,
  1,
  1,
  1,
  1,
  1,
  1,
  1,
  1,
  1,
  1,
  1,
  1,
  1,
  1,
  1,
  1,
  1,
  1,
  1,
  1,
  1,
  1,
  1,
  1,
  1,
  1,
  1,
  1,
  1,
  1,
  1,
  1,
  1,
  1,
  1,
  1,
  1,
  1,
  1,
  1,
  1,
  1,
  1,
  1,
  1,
  1,
  1,
  1,
  1,
  1,
  1,
  1,
  1,
  1,
  1,
  1,
  1,
  1,
  1,
  1,
  1,
  1,
  1,
  1,
  1,
  1,
  1,
  1,
  1,
  1,
  1,
  1,
  1,
  1,
  1,
  1,
  1,
  1,
  1,
  1,
  1,
  1,
  1,
  1,
  1,
  1,
  1,
  1,
  1,
  1,
  1,
  1,
  1,
  1,
  1,
  1,
  1,
  1,
  1,
  1,
  1,
  1,
  1,
  1,
  1,
  1,
  1,
  1,
  1,
  1,
  1,
  1,
  1,
  1,
  1,
  1,
  1,
  1,
  1,
  1,
  1,
  1,
  1,
  1,
  1,
  1,
  1,
  1,
  1,
  1,
  1,
  1,
  1,
  1,
  1,
  1,
  1,
  1,
  1,
  1,
  1,
  1,
  1,
  1,
  1,
  1,
  1,
  1,
  1,
  1,
  1,
  1,
  1,
  1,
  1,
  1,
  1,
  1,
  1,
  1,
  1,
  1,
  1,
  1,
  1,
  1,
  1,
  1,
  1,
  1,
  1,
  1,
  1,
  1,
  1,
  1,
  1,
  1,
  1;

  Material {
   0.800000;0.788000;0.788000;0.000000;;
   1.000000;
   0.000000;0.000000;0.000000;;
   0.000000;0.000000;0.000000;;

   TextureFilename {
    "";
   }
  }

  Material {
   0.800000;0.788000;0.788000;0.000000;;
   1.000000;
   0.000000;0.000000;0.000000;;
   0.000000;0.000000;0.000000;;

   TextureFilename {
    "";
   }
  }
 }
}